aula20/flip_flop_jk/simulation/qsim/flip_flop_jk.msim.vcd
$comment
	File created using the following command:
		vcd file flip_flop_jk.msim.vcd -direction
$end
$date
	Mon Nov 11 22:48:35 2019
$end
$version
	ModelSim Version 10.5b
$end
$timescale
	1ps
$end

$scope module flip_flop_jk_vhd_vec_tst $end
$var wire 1 ! clk $end
$var wire 1 " clk_e $end
$var wire 1 # j $end
$var wire 1 $ k $end
$var wire 1 % r $end
$var wire 1 & saida $end

$scope module i1 $end
$var wire 1 ' gnd $end
$var wire 1 ( vcc $end
$var wire 1 ) unknown $end
$var wire 1 * devoe $end
$var wire 1 + devclrn $end
$var wire 1 , devpor $end
$var wire 1 - ww_devoe $end
$var wire 1 . ww_devclrn $end
$var wire 1 / ww_devpor $end
$var wire 1 0 ww_j $end
$var wire 1 1 ww_k $end
$var wire 1 2 ww_r $end
$var wire 1 3 ww_clk_e $end
$var wire 1 4 ww_clk $end
$var wire 1 5 ww_saida $end
$var wire 1 6 \~QUARTUS_CREATED_GND~I_combout\ $end
$var wire 1 7 \clk~input_o\ $end
$var wire 1 8 \r~input_o\ $end
$var wire 1 9 \j~input_o\ $end
$var wire 1 : \clk_e~input_o\ $end
$var wire 1 ; \k~input_o\ $end
$var wire 1 < \tmp~0_combout\ $end
$var wire 1 = \tmp~feeder_combout\ $end
$var wire 1 > \tmp~q\ $end
$var wire 1 ? \ALT_INV_clk_e~input_o\ $end
$var wire 1 @ \ALT_INV_r~input_o\ $end
$var wire 1 A \ALT_INV_k~input_o\ $end
$var wire 1 B \ALT_INV_j~input_o\ $end
$var wire 1 C \ALT_INV_tmp~0_combout\ $end
$var wire 1 D \ALT_INV_tmp~q\ $end
$upscope $end
$upscope $end
$enddefinitions $end
#0
$dumpvars
0!
0"
0#
1$
1%
0&
0'
1(
x)
1*
1+
1,
1-
1.
1/
00
11
12
03
04
05
x6
07
18
09
0:
1;
0<
0=
0>
1?
0@
0A
1B
1C
1D
$end
#5000
1!
1#
14
10
19
17
0B
#10000
0!
0#
0%
0$
04
00
02
01
0;
08
09
07
1B
1@
1A
#15000
1!
1$
14
11
1;
17
0A
#20000
0!
0$
04
01
0;
07
1A
#25000
1!
1$
1"
14
11
13
1:
1;
17
0A
0?
#30000
0!
04
07
#35000
1!
0$
14
01
0;
17
1A
#40000
0!
1$
1#
04
11
10
19
1;
07
0A
0B
#45000
1!
0$
0#
14
01
00
09
0;
17
1A
1B
#50000
0!
1$
0"
04
11
03
0:
1;
07
0A
1?
#55000
1!
14
17
#60000
0!
0$
1#
04
01
10
19
0;
07
1A
0B
#65000
1!
0#
14
00
09
17
1B
#70000
0!
1#
1$
04
10
11
1;
19
07
0B
0A
#75000
1!
0$
1"
14
01
13
1:
0;
17
1A
0?
1<
0C
1=
#80000
0!
04
07
#85000
1!
14
17
1>
0D
15
1&
#90000
0!
1$
0#
04
11
00
09
1;
07
0A
1B
0<
1C
0=
#95000
1!
14
17
0>
1D
05
0&
#100000
0!
0$
0"
04
01
03
0:
0;
07
1A
1?
#105000
1!
14
17
#110000
0!
1$
04
11
1;
07
0A
#115000
1!
1#
14
10
19
17
0B
#120000
0!
0#
0$
04
00
01
0;
09
07
1B
1A
#125000
1!
1$
1"
14
11
13
1:
1;
17
0A
0?
#130000
0!
0$
1#
04
01
10
19
0;
07
1A
0B
1<
0C
1=
#135000
1!
1$
0#
14
11
00
09
1;
17
0A
1B
1>
0<
0D
1C
0=
15
1&
#140000
0!
0$
04
01
0;
07
1A
1<
0C
1=
#145000
1!
14
17
#150000
0!
1$
0"
04
11
03
0:
1;
07
0A
1?
#155000
1!
14
17
#160000
0!
0$
1#
04
01
10
19
0;
07
1A
0B
#165000
1!
1$
0#
14
11
00
09
1;
17
0A
1B
#170000
0!
1#
04
10
19
07
0B
#175000
1!
0#
0$
1"
14
00
01
13
1:
0;
09
17
1B
1A
0?
#180000
0!
1$
04
11
1;
07
0A
0<
1C
0=
#185000
1!
1#
14
10
19
17
0B
0>
1<
1D
0C
0<
1=
1C
05
0=
0&
#190000
0!
0$
04
01
0;
07
1A
1<
0C
1=
#195000
1!
0#
14
00
09
17
1B
1>
0<
0D
1C
1<
0=
0C
15
1=
1&
#200000
0!
1$
0"
04
11
03
0:
1;
07
0A
1?
#205000
1!
0$
14
01
0;
17
1A
#210000
0!
04
07
#215000
1!
1#
14
10
19
17
0B
#220000
0!
0#
1$
04
00
11
1;
09
07
1B
0A
#225000
1!
1"
14
13
1:
17
0?
0<
1C
0=
#230000
0!
1#
0$
04
10
01
0;
19
07
0B
1A
1<
0C
1=
#235000
1!
1$
14
11
1;
17
0A
#240000
0!
04
07
#245000
1!
14
17
#250000
0!
0#
0"
04
00
03
0:
09
07
1B
1?
#255000
1!
14
17
#260000
0!
1#
0$
1%
04
10
01
12
18
0;
19
07
0B
1A
0@
0<
1C
0=
#265000
1!
0#
1$
14
00
11
1;
09
17
1B
0A
0>
1D
05
0&
#270000
0!
1#
04
10
19
07
0B
#275000
1!
0#
1"
14
00
13
1:
09
17
1B
0?
#280000
0!
0$
04
01
0;
07
1A
#285000
1!
1$
14
11
1;
17
0A
#290000
0!
1#
04
10
19
07
0B
#295000
1!
0#
14
00
09
17
1B
#300000
0!
0$
0"
04
01
03
0:
0;
07
1A
1?
#305000
1!
14
17
#310000
0!
1$
04
11
1;
07
0A
#315000
1!
14
17
#320000
0!
0$
1#
04
01
10
19
0;
07
1A
0B
#325000
1!
1$
0#
1"
14
11
00
13
1:
09
1;
17
0A
1B
0?
#330000
0!
04
07
#335000
1!
0$
14
01
0;
17
1A
#340000
0!
04
07
#345000
1!
1$
14
11
1;
17
0A
#350000
0!
0"
04
03
0:
07
1?
#355000
1!
1#
14
10
19
17
0B
#360000
0!
04
07
#365000
1!
0$
14
01
0;
17
1A
#370000
0!
0#
04
00
09
07
1B
#375000
1!
1#
1"
14
10
13
1:
19
17
0B
0?
#380000
0!
0#
1$
04
00
11
1;
09
07
1B
0A
#385000
1!
0$
14
01
0;
17
1A
#390000
0!
04
07
#395000
1!
1$
14
11
1;
17
0A
#400000
0!
0"
04
03
0:
07
1?
#405000
1!
0$
1#
14
01
10
19
0;
17
1A
0B
#410000
0!
1$
0#
04
11
00
09
1;
07
0A
1B
#415000
1!
1#
14
10
19
17
0B
#420000
0!
0#
04
00
09
07
1B
#425000
1!
1#
0$
1"
14
10
01
13
1:
0;
19
17
0B
1A
0?
#430000
0!
04
07
#435000
1!
0#
14
00
09
17
1B
#440000
0!
1#
1$
04
10
11
1;
19
07
0B
0A
#445000
1!
0#
0$
14
00
01
0;
09
17
1B
1A
#450000
0!
1#
1$
0"
04
10
11
03
0:
1;
19
07
0B
0A
1?
#455000
1!
14
17
#460000
0!
0#
04
00
09
07
1B
#465000
1!
14
17
#470000
0!
1#
0$
04
10
01
0;
19
07
0B
1A
#475000
1!
0#
1$
1"
14
00
11
13
1:
1;
09
17
1B
0A
0?
#480000
0!
04
07
#485000
1!
0$
14
01
0;
17
1A
#490000
0!
1$
1#
04
11
10
19
1;
07
0A
0B
#495000
1!
0#
14
00
09
17
1B
#500000
0!
0$
0"
04
01
03
0:
0;
07
1A
1?
#505000
1!
1$
14
11
1;
17
0A
#510000
0!
1#
0%
04
10
02
08
19
07
0B
1@
#515000
1!
0#
0$
14
00
01
0;
09
17
1B
1A
#520000
0!
1#
04
10
19
07
0B
#525000
1!
0#
1$
1"
14
00
11
13
1:
1;
09
17
1B
0A
0?
#530000
0!
0$
04
01
0;
07
1A
#535000
1!
1#
14
10
19
17
0B
1<
0C
1=
#540000
0!
0#
1$
04
00
11
1;
09
07
1B
0A
0<
1C
0=
#545000
1!
1#
14
10
19
17
0B
#550000
0!
0"
04
03
0:
07
1?
#555000
1!
0$
14
01
0;
17
1A
#560000
0!
04
07
#565000
1!
0#
14
00
09
17
1B
#570000
0!
1#
1$
04
10
11
1;
19
07
0B
0A
#575000
1!
0$
1"
14
01
13
1:
0;
17
1A
0?
1<
0C
1=
#580000
0!
1$
04
11
1;
07
0A
0<
1C
0=
#585000
1!
0$
14
01
0;
17
1A
1<
0C
1=
#590000
0!
04
07
#595000
1!
0#
14
00
09
17
1B
1>
0<
0D
1C
1<
0=
0C
15
1=
1&
#600000
0!
1#
0"
04
10
03
0:
19
07
0B
1?
#605000
1!
14
17
#610000
0!
0#
1$
04
00
11
1;
09
07
1B
0A
#615000
1!
1#
14
10
19
17
0B
#620000
0!
0#
04
00
09
07
1B
#625000
1!
1#
1"
14
10
13
1:
19
17
0B
0?
#630000
0!
04
07
#635000
1!
0#
14
00
09
17
1B
0<
1C
0=
#640000
0!
1#
0$
04
10
01
0;
19
07
0B
1A
1<
0C
1=
#645000
1!
0#
1$
14
00
11
1;
09
17
1B
0A
0<
1C
0=
#650000
0!
1#
0$
0"
04
10
01
03
0:
0;
19
07
0B
1A
1?
1<
0C
1=
#655000
1!
1$
14
11
1;
17
0A
#660000
0!
0$
0#
04
01
00
09
0;
07
1A
1B
#665000
1!
1$
14
11
1;
17
0A
#670000
0!
0$
04
01
0;
07
1A
#675000
1!
1"
14
13
1:
17
0?
#680000
0!
1#
04
10
19
07
0B
#685000
1!
14
17
#690000
0!
1$
04
11
1;
07
0A
#695000
1!
0$
14
01
0;
17
1A
#700000
0!
1$
0#
0"
04
11
00
03
0:
09
1;
07
0A
1B
1?
#705000
1!
0$
1#
14
01
10
19
0;
17
1A
0B
#710000
0!
04
07
#715000
1!
1$
0#
14
11
00
09
1;
17
0A
1B
#720000
0!
04
07
#725000
1!
1"
14
13
1:
17
0?
0<
1C
0=
#730000
0!
0$
04
01
0;
07
1A
1<
0C
1=
#735000
1!
1$
1#
14
11
10
19
1;
17
0A
0B
#740000
0!
0$
0#
04
01
00
09
0;
07
1A
1B
#745000
1!
14
17
#750000
0!
1$
1#
0"
04
11
10
03
0:
19
1;
07
0A
0B
1?
#755000
1!
0$
14
01
0;
17
1A
#760000
0!
0#
1%
04
00
12
18
09
07
1B
0@
0<
1C
0=
#765000
1!
1#
1$
14
10
11
1;
19
17
0B
0A
0>
1D
05
0&
#770000
0!
04
07
#775000
1!
0#
1"
14
00
13
1:
09
17
1B
0?
#780000
0!
1#
0$
04
10
01
0;
19
07
0B
1A
#785000
1!
1$
14
11
1;
17
0A
#790000
0!
0$
04
01
0;
07
1A
#795000
1!
0#
14
00
09
17
1B
#800000
0!
0"
04
03
0:
07
1?
#805000
1!
1$
14
11
1;
17
0A
#810000
0!
1#
04
10
19
07
0B
#815000
1!
0#
0$
14
00
01
0;
09
17
1B
1A
#820000
0!
04
07
#825000
1!
1#
1"
14
10
13
1:
19
17
0B
0?
#830000
0!
0#
1$
04
00
11
1;
09
07
1B
0A
#835000
1!
1#
14
10
19
17
0B
#840000
0!
0$
04
01
0;
07
1A
#845000
1!
0#
14
00
09
17
1B
#850000
0!
0"
04
03
0:
07
1?
#855000
1!
1#
1$
14
10
11
1;
19
17
0B
0A
#860000
0!
0$
04
01
0;
07
1A
#865000
1!
0#
14
00
09
17
1B
#870000
0!
1#
04
10
19
07
0B
#875000
1!
1$
1"
14
11
13
1:
1;
17
0A
0?
#880000
0!
0$
0#
04
01
00
09
0;
07
1A
1B
#885000
1!
1$
14
11
1;
17
0A
#890000
0!
0$
04
01
0;
07
1A
#895000
1!
1$
14
11
1;
17
0A
#900000
0!
1#
0"
04
10
03
0:
19
07
0B
1?
#905000
1!
0$
14
01
0;
17
1A
#910000
0!
04
07
#915000
1!
1$
0#
14
11
00
09
1;
17
0A
1B
#920000
0!
04
07
#925000
1!
0$
1#
1"
14
01
10
13
1:
19
0;
17
1A
0B
0?
#930000
0!
0#
04
00
09
07
1B
#935000
1!
1#
14
10
19
17
0B
#940000
0!
1$
04
11
1;
07
0A
#945000
1!
0#
14
00
09
17
1B
#950000
0!
1#
0$
0"
04
10
01
03
0:
0;
19
07
0B
1A
1?
#955000
1!
1$
14
11
1;
17
0A
#960000
0!
0#
04
00
09
07
1B
#965000
1!
1#
14
10
19
17
0B
#970000
0!
0#
04
00
09
07
1B
#975000
1!
1#
0$
1"
14
10
01
13
1:
0;
19
17
0B
1A
0?
#980000
0!
0#
1$
04
00
11
1;
09
07
1B
0A
#985000
1!
1#
0$
14
10
01
0;
19
17
0B
1A
#990000
0!
0#
04
00
09
07
1B
#995000
1!
14
17
