aula26/exercicio1_fsm2/simulation/qsim/exercicio1_fsm2.msim.vcd
$comment
	File created using the following command:
		vcd file exercicio1_fsm2.msim.vcd -direction
$end
$date
	Mon Nov 11 14:33:40 2019
$end
$version
	ModelSim Version 10.5b
$end
$timescale
	1ps
$end

$scope module exercicio1_fsm2_vhd_vec_tst $end
$var wire 1 ! a $end
$var wire 1 " clk $end
$var wire 1 # x $end
$var wire 1 $ y $end

$scope module i1 $end
$var wire 1 % gnd $end
$var wire 1 & vcc $end
$var wire 1 ' unknown $end
$var wire 1 ( devoe $end
$var wire 1 ) devclrn $end
$var wire 1 * devpor $end
$var wire 1 + ww_devoe $end
$var wire 1 , ww_devclrn $end
$var wire 1 - ww_devpor $end
$var wire 1 . ww_clk $end
$var wire 1 / ww_a $end
$var wire 1 0 ww_x $end
$var wire 1 1 ww_y $end
$var wire 1 2 \~QUARTUS_CREATED_GND~I_combout\ $end
$var wire 1 3 \clk~input_o\ $end
$var wire 1 4 \clk~inputCLKENA0_outclk\ $end
$var wire 1 5 \a~input_o\ $end
$var wire 1 6 \Mux2~0_combout\ $end
$var wire 1 7 \Mux0~0_combout\ $end
$var wire 1 8 \Mux1~0_combout\ $end
$var wire 1 9 \x~reg0_q\ $end
$var wire 1 : \y~reg0_q\ $end
$var wire 1 ; s [1] $end
$var wire 1 < s [0] $end
$var wire 1 = \ALT_INV_a~input_o\ $end
$var wire 1 > ALT_INV_s [1] $end
$var wire 1 ? ALT_INV_s [0] $end
$upscope $end
$upscope $end
$enddefinitions $end
#0
$dumpvars
0!
0"
0#
0$
0%
1&
x'
1(
1)
1*
1+
1,
1-
0.
0/
00
01
x2
03
04
05
06
17
08
09
0:
1=
0;
0<
1>
1?
$end
#5000
1"
1.
13
14
1<
0?
16
07
#10000
0"
1!
0.
1/
15
03
04
0=
#15000
1"
1.
13
14
1;
0<
1:
1?
0>
06
17
18
11
1$
#20000
0"
0!
0.
0/
05
03
04
1=
16
#25000
1"
1.
13
14
1<
19
0?
06
07
08
10
1#
#30000
0"
1!
0.
1/
15
03
04
0=
16
17
18
#35000
1"
1.
13
14
#40000
0"
0!
0.
0/
05
03
04
1=
06
07
08
#45000
1"
1.
13
14
0;
0<
09
0:
1?
1>
17
01
00
0$
0#
#50000
0"
1!
0.
1/
15
03
04
0=
#55000
1"
1.
13
14
1<
0?
16
07
#60000
0"
0!
0.
0/
05
03
04
1=
#65000
1"
1.
13
14
1;
0<
1:
1?
0>
17
18
11
1$
#70000
0"
1!
0.
1/
15
03
04
0=
06
#75000
1"
1.
13
14
0;
1<
19
0:
0?
1>
16
07
08
01
10
0$
1#
#80000
0"
0!
0.
0/
05
03
04
1=
#85000
1"
1.
13
14
1;
0<
09
1:
1?
0>
17
18
11
00
1$
0#
#90000
0"
1!
0.
1/
15
03
04
0=
06
#95000
1"
1.
13
14
0;
1<
19
0:
0?
1>
16
07
08
01
10
0$
1#
#100000
0"
0!
0.
0/
05
03
04
1=
#105000
1"
1.
13
14
1;
0<
09
1:
1?
0>
17
18
11
00
1$
0#
#110000
0"
1!
0.
1/
15
03
04
0=
06
#115000
1"
1.
13
14
0;
1<
19
0:
0?
1>
16
07
08
01
10
0$
1#
#120000
0"
0!
0.
0/
05
03
04
1=
#125000
1"
1.
13
14
1;
0<
09
1:
1?
0>
17
18
11
00
1$
0#
#130000
0"
1!
0.
1/
15
03
04
0=
06
#135000
1"
1.
13
14
0;
1<
19
0:
0?
1>
16
07
08
01
10
0$
1#
#140000
0"
0!
0.
0/
05
03
04
1=
#145000
1"
1.
13
14
1;
0<
09
1:
1?
0>
17
18
11
00
1$
0#
#150000
0"
1!
0.
1/
15
03
04
0=
06
#155000
1"
1.
13
14
0;
1<
19
0:
0?
1>
16
07
08
01
10
0$
1#
#160000
0"
0!
0.
0/
05
03
04
1=
#165000
1"
1.
13
14
1;
0<
09
1:
1?
0>
17
18
11
00
1$
0#
#170000
0"
1!
0.
1/
15
03
04
0=
06
#175000
1"
1.
13
14
0;
1<
19
0:
0?
1>
16
07
08
01
10
0$
1#
#180000
0"
0!
0.
0/
05
03
04
1=
#185000
1"
1.
13
14
1;
0<
09
1:
1?
0>
17
18
11
00
1$
0#
#190000
0"
1!
0.
1/
15
03
04
0=
06
#195000
1"
1.
13
14
0;
1<
19
0:
0?
1>
16
07
08
01
10
0$
1#
#200000
0"
0!
0.
0/
05
03
04
1=
#205000
1"
1.
13
14
1;
0<
09
1:
1?
0>
17
18
11
00
1$
0#
#210000
0"
1!
0.
1/
15
03
04
0=
06
#215000
1"
1.
13
14
0;
1<
19
0:
0?
1>
16
07
08
01
10
0$
1#
#220000
0"
0!
0.
0/
05
03
04
1=
#225000
1"
1.
13
14
1;
0<
09
1:
1?
0>
17
18
11
00
1$
0#
#230000
0"
1!
0.
1/
15
03
04
0=
06
#235000
1"
1.
13
14
0;
1<
19
0:
0?
1>
16
07
08
01
10
0$
1#
#240000
0"
0!
0.
0/
05
03
04
1=
#245000
1"
1.
13
14
1;
0<
09
1:
1?
0>
17
18
11
00
1$
0#
#250000
0"
1!
0.
1/
15
03
04
0=
06
#255000
1"
1.
13
14
0;
1<
19
0:
0?
1>
16
07
08
01
10
0$
1#
#260000
0"
0!
0.
0/
05
03
04
1=
#265000
1"
1.
13
14
1;
0<
09
1:
1?
0>
17
18
11
00
1$
0#
#270000
0"
1!
0.
1/
15
03
04
0=
06
#275000
1"
1.
13
14
0;
1<
19
0:
0?
1>
16
07
08
01
10
0$
1#
#280000
0"
0!
0.
0/
05
03
04
1=
#285000
1"
1.
13
14
1;
0<
09
1:
1?
0>
17
18
11
00
1$
0#
#290000
0"
1!
0.
1/
15
03
04
0=
06
#295000
1"
1.
13
14
0;
1<
19
0:
0?
1>
16
07
08
01
10
0$
1#
#300000
0"
0!
0.
0/
05
03
04
1=
#305000
1"
1.
13
14
1;
0<
09
1:
1?
0>
17
18
11
00
1$
0#
#310000
0"
1!
0.
1/
15
03
04
0=
06
#315000
1"
1.
13
14
0;
1<
19
0:
0?
1>
16
07
08
01
10
0$
1#
#320000
0"
0!
0.
0/
05
03
04
1=
#325000
1"
1.
13
14
1;
0<
09
1:
1?
0>
17
18
11
00
1$
0#
#330000
0"
1!
0.
1/
15
03
04
0=
06
#335000
1"
1.
13
14
0;
1<
19
0:
0?
1>
16
07
08
01
10
0$
1#
#340000
0"
0!
0.
0/
05
03
04
1=
#345000
1"
1.
13
14
1;
0<
09
1:
1?
0>
17
18
11
00
1$
0#
#350000
0"
1!
0.
1/
15
03
04
0=
06
#355000
1"
1.
13
14
0;
1<
19
0:
0?
1>
16
07
08
01
10
0$
1#
#360000
0"
0!
0.
0/
05
03
04
1=
#365000
1"
1.
13
14
1;
0<
09
1:
1?
0>
17
18
11
00
1$
0#
#370000
0"
1!
0.
1/
15
03
04
0=
06
#375000
1"
1.
13
14
0;
1<
19
0:
0?
1>
16
07
08
01
10
0$
1#
#380000
0"
0!
0.
0/
05
03
04
1=
#385000
1"
1.
13
14
1;
0<
09
1:
1?
0>
17
18
11
00
1$
0#
#390000
0"
1!
0.
1/
15
03
04
0=
06
#395000
1"
1.
13
14
0;
1<
19
0:
0?
1>
16
07
08
01
10
0$
1#
#400000
0"
0!
0.
0/
05
03
04
1=
#405000
1"
1.
13
14
1;
0<
09
1:
1?
0>
17
18
11
00
1$
0#
#410000
0"
1!
0.
1/
15
03
04
0=
06
#415000
1"
1.
13
14
0;
1<
19
0:
0?
1>
16
07
08
01
10
0$
1#
#420000
0"
0!
0.
0/
05
03
04
1=
#425000
1"
1.
13
14
1;
0<
09
1:
1?
0>
17
18
11
00
1$
0#
#430000
0"
1!
0.
1/
15
03
04
0=
06
#435000
1"
1.
13
14
0;
1<
19
0:
0?
1>
16
07
08
01
10
0$
1#
#440000
0"
0!
0.
0/
05
03
04
1=
#445000
1"
1.
13
14
1;
0<
09
1:
1?
0>
17
18
11
00
1$
0#
#450000
0"
1!
0.
1/
15
03
04
0=
06
#455000
1"
1.
13
14
0;
1<
19
0:
0?
1>
16
07
08
01
10
0$
1#
#460000
0"
0!
0.
0/
05
03
04
1=
#465000
1"
1.
13
14
1;
0<
09
1:
1?
0>
17
18
11
00
1$
0#
#470000
0"
1!
0.
1/
15
03
04
0=
06
#475000
1"
1.
13
14
0;
1<
19
0:
0?
1>
16
07
08
01
10
0$
1#
#480000
0"
0!
0.
0/
05
03
04
1=
#485000
1"
1.
13
14
1;
0<
09
1:
1?
0>
17
18
11
00
1$
0#
#490000
0"
1!
0.
1/
15
03
04
0=
06
#495000
1"
1.
13
14
0;
1<
19
0:
0?
1>
16
07
08
01
10
0$
1#
#500000
0"
0!
0.
0/
05
03
04
1=
#505000
1"
1.
13
14
1;
0<
09
1:
1?
0>
17
18
11
00
1$
0#
#510000
0"
1!
0.
1/
15
03
04
0=
06
#515000
1"
1.
13
14
0;
1<
19
0:
0?
1>
16
07
08
01
10
0$
1#
#520000
0"
0!
0.
0/
05
03
04
1=
#525000
1"
1.
13
14
1;
0<
09
1:
1?
0>
17
18
11
00
1$
0#
#530000
0"
1!
0.
1/
15
03
04
0=
06
#535000
1"
1.
13
14
0;
1<
19
0:
0?
1>
16
07
08
01
10
0$
1#
#540000
0"
0!
0.
0/
05
03
04
1=
#545000
1"
1.
13
14
1;
0<
09
1:
1?
0>
17
18
11
00
1$
0#
#550000
0"
1!
0.
1/
15
03
04
0=
06
#555000
1"
1.
13
14
0;
1<
19
0:
0?
1>
16
07
08
01
10
0$
1#
#560000
0"
0!
0.
0/
05
03
04
1=
#565000
1"
1.
13
14
1;
0<
09
1:
1?
0>
17
18
11
00
1$
0#
#570000
0"
1!
0.
1/
15
03
04
0=
06
#575000
1"
1.
13
14
0;
1<
19
0:
0?
1>
16
07
08
01
10
0$
1#
#580000
0"
0!
0.
0/
05
03
04
1=
#585000
1"
1.
13
14
1;
0<
09
1:
1?
0>
17
18
11
00
1$
0#
#590000
0"
1!
0.
1/
15
03
04
0=
06
#595000
1"
1.
13
14
0;
1<
19
0:
0?
1>
16
07
08
01
10
0$
1#
#600000
0"
0!
0.
0/
05
03
04
1=
#605000
1"
1.
13
14
1;
0<
09
1:
1?
0>
17
18
11
00
1$
0#
#610000
0"
1!
0.
1/
15
03
04
0=
06
#615000
1"
1.
13
14
0;
1<
19
0:
0?
1>
16
07
08
01
10
0$
1#
#620000
0"
0!
0.
0/
05
03
04
1=
#625000
1"
1.
13
14
1;
0<
09
1:
1?
0>
17
18
11
00
1$
0#
#630000
0"
1!
0.
1/
15
03
04
0=
06
#635000
1"
1.
13
14
0;
1<
19
0:
0?
1>
16
07
08
01
10
0$
1#
#640000
0"
0!
0.
0/
05
03
04
1=
#645000
1"
1.
13
14
1;
0<
09
1:
1?
0>
17
18
11
00
1$
0#
#650000
0"
1!
0.
1/
15
03
04
0=
06
#655000
1"
1.
13
14
0;
1<
19
0:
0?
1>
16
07
08
01
10
0$
1#
#660000
0"
0!
0.
0/
05
03
04
1=
#665000
1"
1.
13
14
1;
0<
09
1:
1?
0>
17
18
11
00
1$
0#
#670000
0"
1!
0.
1/
15
03
04
0=
06
#675000
1"
1.
13
14
0;
1<
19
0:
0?
1>
16
07
08
01
10
0$
1#
#680000
0"
0!
0.
0/
05
03
04
1=
#685000
1"
1.
13
14
1;
0<
09
1:
1?
0>
17
18
11
00
1$
0#
#690000
0"
1!
0.
1/
15
03
04
0=
06
#695000
1"
1.
13
14
0;
1<
19
0:
0?
1>
16
07
08
01
10
0$
1#
#700000
0"
0!
0.
0/
05
03
04
1=
#705000
1"
1.
13
14
1;
0<
09
1:
1?
0>
17
18
11
00
1$
0#
#710000
0"
1!
0.
1/
15
03
04
0=
06
#715000
1"
1.
13
14
0;
1<
19
0:
0?
1>
16
07
08
01
10
0$
1#
#720000
0"
0!
0.
0/
05
03
04
1=
#725000
1"
1.
13
14
1;
0<
09
1:
1?
0>
17
18
11
00
1$
0#
#730000
0"
1!
0.
1/
15
03
04
0=
06
#735000
1"
1.
13
14
0;
1<
19
0:
0?
1>
16
07
08
01
10
0$
1#
#740000
0"
0!
0.
0/
05
03
04
1=
#745000
1"
1.
13
14
1;
0<
09
1:
1?
0>
17
18
11
00
1$
0#
#750000
0"
1!
0.
1/
15
03
04
0=
06
#755000
1"
1.
13
14
0;
1<
19
0:
0?
1>
16
07
08
01
10
0$
1#
#760000
0"
0!
0.
0/
05
03
04
1=
#765000
1"
1.
13
14
1;
0<
09
1:
1?
0>
17
18
11
00
1$
0#
#770000
0"
1!
0.
1/
15
03
04
0=
06
#775000
1"
1.
13
14
0;
1<
19
0:
0?
1>
16
07
08
01
10
0$
1#
#780000
0"
0!
0.
0/
05
03
04
1=
#785000
1"
1.
13
14
1;
0<
09
1:
1?
0>
17
18
11
00
1$
0#
#790000
0"
1!
0.
1/
15
03
04
0=
06
#795000
1"
1.
13
14
0;
1<
19
0:
0?
1>
16
07
08
01
10
0$
1#
#800000
0"
0!
0.
0/
05
03
04
1=
#805000
1"
1.
13
14
1;
0<
09
1:
1?
0>
17
18
11
00
1$
0#
#810000
0"
1!
0.
1/
15
03
04
0=
06
#815000
1"
1.
13
14
0;
1<
19
0:
0?
1>
16
07
08
01
10
0$
1#
#820000
0"
0!
0.
0/
05
03
04
1=
#825000
1"
1.
13
14
1;
0<
09
1:
1?
0>
17
18
11
00
1$
0#
#830000
0"
1!
0.
1/
15
03
04
0=
06
#835000
1"
1.
13
14
0;
1<
19
0:
0?
1>
16
07
08
01
10
0$
1#
#840000
0"
0!
0.
0/
05
03
04
1=
#845000
1"
1.
13
14
1;
0<
09
1:
1?
0>
17
18
11
00
1$
0#
#850000
0"
1!
0.
1/
15
03
04
0=
06
#855000
1"
1.
13
14
0;
1<
19
0:
0?
1>
16
07
08
01
10
0$
1#
#860000
0"
0!
0.
0/
05
03
04
1=
#865000
1"
1.
13
14
1;
0<
09
1:
1?
0>
17
18
11
00
1$
0#
#870000
0"
1!
0.
1/
15
03
04
0=
06
#875000
1"
1.
13
14
0;
1<
19
0:
0?
1>
16
07
08
01
10
0$
1#
#880000
0"
0!
0.
0/
05
03
04
1=
#885000
1"
1.
13
14
1;
0<
09
1:
1?
0>
17
18
11
00
1$
0#
#890000
0"
1!
0.
1/
15
03
04
0=
06
#895000
1"
1.
13
14
0;
1<
19
0:
0?
1>
16
07
08
01
10
0$
1#
#900000
0"
0!
0.
0/
05
03
04
1=
#905000
1"
1.
13
14
1;
0<
09
1:
1?
0>
17
18
11
00
1$
0#
#910000
0"
1!
0.
1/
15
03
04
0=
06
#915000
1"
1.
13
14
0;
1<
19
0:
0?
1>
16
07
08
01
10
0$
1#
#920000
0"
0!
0.
0/
05
03
04
1=
#925000
1"
1.
13
14
1;
0<
09
1:
1?
0>
17
18
11
00
1$
0#
#930000
0"
1!
0.
1/
15
03
04
0=
06
#935000
1"
1.
13
14
0;
1<
19
0:
0?
1>
16
07
08
01
10
0$
1#
#940000
0"
0!
0.
0/
05
03
04
1=
#945000
1"
1.
13
14
1;
0<
09
1:
1?
0>
17
18
11
00
1$
0#
#950000
0"
1!
0.
1/
15
03
04
0=
06
#955000
1"
1.
13
14
0;
1<
19
0:
0?
1>
16
07
08
01
10
0$
1#
#960000
0"
0!
0.
0/
05
03
04
1=
#965000
1"
1.
13
14
1;
0<
09
1:
1?
0>
17
18
11
00
1$
0#
#970000
0"
1!
0.
1/
15
03
04
0=
06
#975000
1"
1.
13
14
0;
1<
19
0:
0?
1>
16
07
08
01
10
0$
1#
#980000
0"
0!
0.
0/
05
03
04
1=
#985000
1"
1.
13
14
1;
0<
09
1:
1?
0>
17
18
11
00
1$
0#
#990000
0"
1!
0.
1/
15
03
04
0=
06
#995000
1"
1.
13
14
0;
1<
19
0:
0?
1>
16
07
08
01
10
0$
1#
