aula26/exercicio1_fsm1/simulation/qsim/exercicio1_fsm1.msim.vcd
$comment
	File created using the following command:
		vcd file exercicio1_fsm1.msim.vcd -direction
$end
$date
	Mon Nov 11 14:06:47 2019
$end
$version
	ModelSim Version 10.5b
$end
$timescale
	1ps
$end

$scope module exercicio1_fsm1_vhd_vec_tst $end
$var wire 1 ! bt $end
$var wire 1 " clk $end
$var wire 1 # l1 $end
$var wire 1 $ l2 $end
$var wire 1 % l3 $end
$var wire 1 & x $end

$scope module i1 $end
$var wire 1 ' gnd $end
$var wire 1 ( vcc $end
$var wire 1 ) unknown $end
$var wire 1 * devoe $end
$var wire 1 + devclrn $end
$var wire 1 , devpor $end
$var wire 1 - ww_devoe $end
$var wire 1 . ww_devclrn $end
$var wire 1 / ww_devpor $end
$var wire 1 0 ww_clk $end
$var wire 1 1 ww_bt $end
$var wire 1 2 ww_x $end
$var wire 1 3 ww_l1 $end
$var wire 1 4 ww_l2 $end
$var wire 1 5 ww_l3 $end
$var wire 1 6 \~QUARTUS_CREATED_GND~I_combout\ $end
$var wire 1 7 \clk~input_o\ $end
$var wire 1 8 \clk~inputCLKENA0_outclk\ $end
$var wire 1 9 \bt~input_o\ $end
$var wire 1 : \s[0]~feeder_combout\ $end
$var wire 1 ; \Mux2~0_combout\ $end
$var wire 1 < \s[1]~feeder_combout\ $end
$var wire 1 = \Mux1~0_combout\ $end
$var wire 1 > \s[2]~feeder_combout\ $end
$var wire 1 ? \Mux0~0_combout\ $end
$var wire 1 @ \x~reg0_q\ $end
$var wire 1 A \l1~reg0_q\ $end
$var wire 1 B \l2~reg0_q\ $end
$var wire 1 C \l3~reg0_q\ $end
$var wire 1 D s [3] $end
$var wire 1 E s [2] $end
$var wire 1 F s [1] $end
$var wire 1 G s [0] $end
$var wire 1 H \ALT_INV_bt~input_o\ $end
$var wire 1 I \ALT_INV_Mux2~0_combout\ $end
$var wire 1 J \ALT_INV_Mux1~0_combout\ $end
$var wire 1 K \ALT_INV_Mux0~0_combout\ $end
$var wire 1 L ALT_INV_s [2] $end
$var wire 1 M ALT_INV_s [1] $end
$var wire 1 N ALT_INV_s [0] $end
$upscope $end
$upscope $end
$enddefinitions $end
#0
$dumpvars
0!
0"
0#
0$
0%
0&
0'
1(
x)
1*
1+
1,
1-
1.
1/
00
01
02
03
04
05
x6
07
08
09
0:
0;
0<
0=
0>
0?
0@
0A
0B
0C
1H
1I
1J
1K
xD
0E
0F
0G
1L
1M
1N
$end
#5000
1"
10
17
18
#10000
0"
1!
00
11
19
07
08
0H
1=
0J
1>
#15000
1"
10
17
18
1E
1A
0L
1;
0=
1J
0I
13
1<
0>
1#
#20000
0"
0!
00
01
09
07
08
1H
0;
1=
0J
1I
0<
1>
#25000
1"
10
17
18
#30000
0"
1!
00
11
19
07
08
0H
1;
0=
1J
0I
1<
0>
#35000
1"
10
17
18
1F
0E
0A
1B
1L
0M
0;
1?
0K
1I
14
03
0<
1:
1$
0#
#40000
0"
0!
00
01
09
07
08
1H
1;
0?
1K
0I
1<
0:
#45000
1"
10
17
18
#50000
0"
1!
00
11
19
07
08
0H
0;
1?
0K
1I
0<
1:
#55000
1"
10
17
18
1G
0F
1@
0B
1C
1M
0N
0?
1K
15
04
12
0:
1%
0$
1&
#60000
0"
0!
00
01
09
07
08
1H
#65000
1"
10
17
18
0G
0@
0C
1N
05
02
0%
0&
#70000
0"
1!
00
11
19
07
08
0H
1=
0J
1>
#75000
1"
10
17
18
1E
1A
0L
1;
0=
1J
0I
13
1<
0>
1#
#80000
0"
0!
00
01
09
07
08
1H
0;
1=
0J
1I
0<
1>
#85000
1"
10
17
18
#90000
0"
1!
00
11
19
07
08
0H
1;
0=
1J
0I
1<
0>
#95000
1"
10
17
18
1F
0E
0A
1B
1L
0M
0;
1?
0K
1I
14
03
0<
1:
1$
0#
#100000
0"
0!
00
01
09
07
08
1H
1;
0?
1K
0I
1<
0:
#105000
1"
10
17
18
#110000
0"
1!
00
11
19
07
08
0H
0;
1?
0K
1I
0<
1:
#115000
1"
10
17
18
1G
0F
1@
0B
1C
1M
0N
0?
1K
15
04
12
0:
1%
0$
1&
#120000
0"
0!
00
01
09
07
08
1H
#125000
1"
10
17
18
0G
0@
0C
1N
05
02
0%
0&
#130000
0"
1!
00
11
19
07
08
0H
1=
0J
1>
#135000
1"
10
17
18
1E
1A
0L
1;
0=
1J
0I
13
1<
0>
1#
#140000
0"
0!
00
01
09
07
08
1H
0;
1=
0J
1I
0<
1>
#145000
1"
10
17
18
#150000
0"
1!
00
11
19
07
08
0H
1;
0=
1J
0I
1<
0>
#155000
1"
10
17
18
1F
0E
0A
1B
1L
0M
0;
1?
0K
1I
14
03
0<
1:
1$
0#
#160000
0"
0!
00
01
09
07
08
1H
1;
0?
1K
0I
1<
0:
#165000
1"
10
17
18
#170000
0"
1!
00
11
19
07
08
0H
0;
1?
0K
1I
0<
1:
#175000
1"
10
17
18
1G
0F
1@
0B
1C
1M
0N
0?
1K
15
04
12
0:
1%
0$
1&
#180000
0"
0!
00
01
09
07
08
1H
#185000
1"
10
17
18
0G
0@
0C
1N
05
02
0%
0&
#190000
0"
1!
00
11
19
07
08
0H
1=
0J
1>
#195000
1"
10
17
18
1E
1A
0L
1;
0=
1J
0I
13
1<
0>
1#
#200000
0"
0!
00
01
09
07
08
1H
0;
1=
0J
1I
0<
1>
#205000
1"
10
17
18
#210000
0"
1!
00
11
19
07
08
0H
1;
0=
1J
0I
1<
0>
#215000
1"
10
17
18
1F
0E
0A
1B
1L
0M
0;
1?
0K
1I
14
03
0<
1:
1$
0#
#220000
0"
0!
00
01
09
07
08
1H
1;
0?
1K
0I
1<
0:
#225000
1"
10
17
18
#230000
0"
1!
00
11
19
07
08
0H
0;
1?
0K
1I
0<
1:
#235000
1"
10
17
18
1G
0F
1@
0B
1C
1M
0N
0?
1K
15
04
12
0:
1%
0$
1&
#240000
0"
0!
00
01
09
07
08
1H
#245000
1"
10
17
18
0G
0@
0C
1N
05
02
0%
0&
#250000
0"
1!
00
11
19
07
08
0H
1=
0J
1>
#255000
1"
10
17
18
1E
1A
0L
1;
0=
1J
0I
13
1<
0>
1#
#260000
0"
0!
00
01
09
07
08
1H
0;
1=
0J
1I
0<
1>
#265000
1"
10
17
18
#270000
0"
1!
00
11
19
07
08
0H
1;
0=
1J
0I
1<
0>
#275000
1"
10
17
18
1F
0E
0A
1B
1L
0M
0;
1?
0K
1I
14
03
0<
1:
1$
0#
#280000
0"
0!
00
01
09
07
08
1H
1;
0?
1K
0I
1<
0:
#285000
1"
10
17
18
#290000
0"
1!
00
11
19
07
08
0H
0;
1?
0K
1I
0<
1:
#295000
1"
10
17
18
1G
0F
1@
0B
1C
1M
0N
0?
1K
15
04
12
0:
1%
0$
1&
#300000
0"
0!
00
01
09
07
08
1H
#305000
1"
10
17
18
0G
0@
0C
1N
05
02
0%
0&
#310000
0"
1!
00
11
19
07
08
0H
1=
0J
1>
#315000
1"
10
17
18
1E
1A
0L
1;
0=
1J
0I
13
1<
0>
1#
#320000
0"
0!
00
01
09
07
08
1H
0;
1=
0J
1I
0<
1>
#325000
1"
10
17
18
#330000
0"
1!
00
11
19
07
08
0H
1;
0=
1J
0I
1<
0>
#335000
1"
10
17
18
1F
0E
0A
1B
1L
0M
0;
1?
0K
1I
14
03
0<
1:
1$
0#
#340000
0"
0!
00
01
09
07
08
1H
1;
0?
1K
0I
1<
0:
#345000
1"
10
17
18
#350000
0"
1!
00
11
19
07
08
0H
0;
1?
0K
1I
0<
1:
#355000
1"
10
17
18
1G
0F
1@
0B
1C
1M
0N
0?
1K
15
04
12
0:
1%
0$
1&
#360000
0"
0!
00
01
09
07
08
1H
#365000
1"
10
17
18
0G
0@
0C
1N
05
02
0%
0&
#370000
0"
1!
00
11
19
07
08
0H
1=
0J
1>
#375000
1"
10
17
18
1E
1A
0L
1;
0=
1J
0I
13
1<
0>
1#
#380000
0"
0!
00
01
09
07
08
1H
0;
1=
0J
1I
0<
1>
#385000
1"
10
17
18
#390000
0"
1!
00
11
19
07
08
0H
1;
0=
1J
0I
1<
0>
#395000
1"
10
17
18
1F
0E
0A
1B
1L
0M
0;
1?
0K
1I
14
03
0<
1:
1$
0#
#400000
0"
0!
00
01
09
07
08
1H
1;
0?
1K
0I
1<
0:
#405000
1"
10
17
18
#410000
0"
1!
00
11
19
07
08
0H
0;
1?
0K
1I
0<
1:
#415000
1"
10
17
18
1G
0F
1@
0B
1C
1M
0N
0?
1K
15
04
12
0:
1%
0$
1&
#420000
0"
0!
00
01
09
07
08
1H
#425000
1"
10
17
18
0G
0@
0C
1N
05
02
0%
0&
#430000
0"
1!
00
11
19
07
08
0H
1=
0J
1>
#435000
1"
10
17
18
1E
1A
0L
1;
0=
1J
0I
13
1<
0>
1#
#440000
0"
0!
00
01
09
07
08
1H
0;
1=
0J
1I
0<
1>
#445000
1"
10
17
18
#450000
0"
1!
00
11
19
07
08
0H
1;
0=
1J
0I
1<
0>
#455000
1"
10
17
18
1F
0E
0A
1B
1L
0M
0;
1?
0K
1I
14
03
0<
1:
1$
0#
#460000
0"
0!
00
01
09
07
08
1H
1;
0?
1K
0I
1<
0:
#465000
1"
10
17
18
#470000
0"
1!
00
11
19
07
08
0H
0;
1?
0K
1I
0<
1:
#475000
1"
10
17
18
1G
0F
1@
0B
1C
1M
0N
0?
1K
15
04
12
0:
1%
0$
1&
#480000
0"
0!
00
01
09
07
08
1H
#485000
1"
10
17
18
0G
0@
0C
1N
05
02
0%
0&
#490000
0"
1!
00
11
19
07
08
0H
1=
0J
1>
#495000
1"
10
17
18
1E
1A
0L
1;
0=
1J
0I
13
1<
0>
1#
#500000
0"
0!
00
01
09
07
08
1H
0;
1=
0J
1I
0<
1>
#505000
1"
10
17
18
#510000
0"
1!
00
11
19
07
08
0H
1;
0=
1J
0I
1<
0>
#515000
1"
10
17
18
1F
0E
0A
1B
1L
0M
0;
1?
0K
1I
14
03
0<
1:
1$
0#
#520000
0"
0!
00
01
09
07
08
1H
1;
0?
1K
0I
1<
0:
#525000
1"
10
17
18
#530000
0"
1!
00
11
19
07
08
0H
0;
1?
0K
1I
0<
1:
#535000
1"
10
17
18
1G
0F
1@
0B
1C
1M
0N
0?
1K
15
04
12
0:
1%
0$
1&
#540000
0"
0!
00
01
09
07
08
1H
#545000
1"
10
17
18
0G
0@
0C
1N
05
02
0%
0&
#550000
0"
1!
00
11
19
07
08
0H
1=
0J
1>
#555000
1"
10
17
18
1E
1A
0L
1;
0=
1J
0I
13
1<
0>
1#
#560000
0"
0!
00
01
09
07
08
1H
0;
1=
0J
1I
0<
1>
#565000
1"
10
17
18
#570000
0"
1!
00
11
19
07
08
0H
1;
0=
1J
0I
1<
0>
#575000
1"
10
17
18
1F
0E
0A
1B
1L
0M
0;
1?
0K
1I
14
03
0<
1:
1$
0#
#580000
0"
0!
00
01
09
07
08
1H
1;
0?
1K
0I
1<
0:
#585000
1"
10
17
18
#590000
0"
1!
00
11
19
07
08
0H
0;
1?
0K
1I
0<
1:
#595000
1"
10
17
18
1G
0F
1@
0B
1C
1M
0N
0?
1K
15
04
12
0:
1%
0$
1&
#600000
0"
0!
00
01
09
07
08
1H
#605000
1"
10
17
18
0G
0@
0C
1N
05
02
0%
0&
#610000
0"
1!
00
11
19
07
08
0H
1=
0J
1>
#615000
1"
10
17
18
1E
1A
0L
1;
0=
1J
0I
13
1<
0>
1#
#620000
0"
0!
00
01
09
07
08
1H
0;
1=
0J
1I
0<
1>
#625000
1"
10
17
18
#630000
0"
1!
00
11
19
07
08
0H
1;
0=
1J
0I
1<
0>
#635000
1"
10
17
18
1F
0E
0A
1B
1L
0M
0;
1?
0K
1I
14
03
0<
1:
1$
0#
#640000
0"
0!
00
01
09
07
08
1H
1;
0?
1K
0I
1<
0:
#645000
1"
10
17
18
#650000
0"
1!
00
11
19
07
08
0H
0;
1?
0K
1I
0<
1:
#655000
1"
10
17
18
1G
0F
1@
0B
1C
1M
0N
0?
1K
15
04
12
0:
1%
0$
1&
#660000
0"
0!
00
01
09
07
08
1H
#665000
1"
10
17
18
0G
0@
0C
1N
05
02
0%
0&
#670000
0"
1!
00
11
19
07
08
0H
1=
0J
1>
#675000
1"
10
17
18
1E
1A
0L
1;
0=
1J
0I
13
1<
0>
1#
#680000
0"
0!
00
01
09
07
08
1H
0;
1=
0J
1I
0<
1>
#685000
1"
10
17
18
#690000
0"
1!
00
11
19
07
08
0H
1;
0=
1J
0I
1<
0>
#695000
1"
10
17
18
1F
0E
0A
1B
1L
0M
0;
1?
0K
1I
14
03
0<
1:
1$
0#
#700000
0"
0!
00
01
09
07
08
1H
1;
0?
1K
0I
1<
0:
#705000
1"
10
17
18
#710000
0"
1!
00
11
19
07
08
0H
0;
1?
0K
1I
0<
1:
#715000
1"
10
17
18
1G
0F
1@
0B
1C
1M
0N
0?
1K
15
04
12
0:
1%
0$
1&
#720000
0"
0!
00
01
09
07
08
1H
#725000
1"
10
17
18
0G
0@
0C
1N
05
02
0%
0&
#730000
0"
1!
00
11
19
07
08
0H
1=
0J
1>
#735000
1"
10
17
18
1E
1A
0L
1;
0=
1J
0I
13
1<
0>
1#
#740000
0"
0!
00
01
09
07
08
1H
0;
1=
0J
1I
0<
1>
#745000
1"
10
17
18
#750000
0"
1!
00
11
19
07
08
0H
1;
0=
1J
0I
1<
0>
#755000
1"
10
17
18
1F
0E
0A
1B
1L
0M
0;
1?
0K
1I
14
03
0<
1:
1$
0#
#760000
0"
0!
00
01
09
07
08
1H
1;
0?
1K
0I
1<
0:
#765000
1"
10
17
18
#770000
0"
1!
00
11
19
07
08
0H
0;
1?
0K
1I
0<
1:
#775000
1"
10
17
18
1G
0F
1@
0B
1C
1M
0N
0?
1K
15
04
12
0:
1%
0$
1&
#780000
0"
0!
00
01
09
07
08
1H
#785000
1"
10
17
18
0G
0@
0C
1N
05
02
0%
0&
#790000
0"
1!
00
11
19
07
08
0H
1=
0J
1>
#795000
1"
10
17
18
1E
1A
0L
1;
0=
1J
0I
13
1<
0>
1#
#800000
0"
0!
00
01
09
07
08
1H
0;
1=
0J
1I
0<
1>
#805000
1"
10
17
18
#810000
0"
1!
00
11
19
07
08
0H
1;
0=
1J
0I
1<
0>
#815000
1"
10
17
18
1F
0E
0A
1B
1L
0M
0;
1?
0K
1I
14
03
0<
1:
1$
0#
#820000
0"
0!
00
01
09
07
08
1H
1;
0?
1K
0I
1<
0:
#825000
1"
10
17
18
#830000
0"
1!
00
11
19
07
08
0H
0;
1?
0K
1I
0<
1:
#835000
1"
10
17
18
1G
0F
1@
0B
1C
1M
0N
0?
1K
15
04
12
0:
1%
0$
1&
#840000
0"
0!
00
01
09
07
08
1H
#845000
1"
10
17
18
0G
0@
0C
1N
05
02
0%
0&
#850000
0"
1!
00
11
19
07
08
0H
1=
0J
1>
#855000
1"
10
17
18
1E
1A
0L
1;
0=
1J
0I
13
1<
0>
1#
#860000
0"
0!
00
01
09
07
08
1H
0;
1=
0J
1I
0<
1>
#865000
1"
10
17
18
#870000
0"
1!
00
11
19
07
08
0H
1;
0=
1J
0I
1<
0>
#875000
1"
10
17
18
1F
0E
0A
1B
1L
0M
0;
1?
0K
1I
14
03
0<
1:
1$
0#
#880000
0"
0!
00
01
09
07
08
1H
1;
0?
1K
0I
1<
0:
#885000
1"
10
17
18
#890000
0"
1!
00
11
19
07
08
0H
0;
1?
0K
1I
0<
1:
#895000
1"
10
17
18
1G
0F
1@
0B
1C
1M
0N
0?
1K
15
04
12
0:
1%
0$
1&
#900000
0"
0!
00
01
09
07
08
1H
#905000
1"
10
17
18
0G
0@
0C
1N
05
02
0%
0&
#910000
0"
1!
00
11
19
07
08
0H
1=
0J
1>
#915000
1"
10
17
18
1E
1A
0L
1;
0=
1J
0I
13
1<
0>
1#
#920000
0"
0!
00
01
09
07
08
1H
0;
1=
0J
1I
0<
1>
#925000
1"
10
17
18
#930000
0"
1!
00
11
19
07
08
0H
1;
0=
1J
0I
1<
0>
#935000
1"
10
17
18
1F
0E
0A
1B
1L
0M
0;
1?
0K
1I
14
03
0<
1:
1$
0#
#940000
0"
0!
00
01
09
07
08
1H
1;
0?
1K
0I
1<
0:
#945000
1"
10
17
18
#950000
0"
1!
00
11
19
07
08
0H
0;
1?
0K
1I
0<
1:
#955000
1"
10
17
18
1G
0F
1@
0B
1C
1M
0N
0?
1K
15
04
12
0:
1%
0$
1&
#960000
0"
0!
00
01
09
07
08
1H
#965000
1"
10
17
18
0G
0@
0C
1N
05
02
0%
0&
#970000
0"
1!
00
11
19
07
08
0H
1=
0J
1>
#975000
1"
10
17
18
1E
1A
0L
1;
0=
1J
0I
13
1<
0>
1#
#980000
0"
0!
00
01
09
07
08
1H
0;
1=
0J
1I
0<
1>
#985000
1"
10
17
18
#990000
0"
1!
00
11
19
07
08
0H
1;
0=
1J
0I
1<
0>
#995000
1"
10
17
18
1F
0E
0A
1B
1L
0M
0;
1?
0K
1I
14
03
0<
1:
1$
0#
