aula23/exercicio1/simulation/qsim/exercicio1.msim.vcd
$comment
	File created using the following command:
		vcd file exercicio1.msim.vcd -direction
$end
$date
	Mon Nov 11 23:01:06 2019
$end
$version
	ModelSim Version 10.5b
$end
$timescale
	1ps
$end

$scope module exercicio1_vhd_vec_tst $end
$var wire 1 ! clk $end
$var wire 1 " data [15] $end
$var wire 1 # data [14] $end
$var wire 1 $ data [13] $end
$var wire 1 % data [12] $end
$var wire 1 & data [11] $end
$var wire 1 ' data [10] $end
$var wire 1 ( data [9] $end
$var wire 1 ) data [8] $end
$var wire 1 * data [7] $end
$var wire 1 + data [6] $end
$var wire 1 , data [5] $end
$var wire 1 - data [4] $end
$var wire 1 . data [3] $end
$var wire 1 / data [2] $end
$var wire 1 0 data [1] $end
$var wire 1 1 data [0] $end
$var wire 1 2 dmx [2] $end
$var wire 1 3 dmx [1] $end
$var wire 1 4 dmx [0] $end
$var wire 1 5 mux [2] $end
$var wire 1 6 mux [1] $end
$var wire 1 7 mux [0] $end
$var wire 1 8 q [15] $end
$var wire 1 9 q [14] $end
$var wire 1 : q [13] $end
$var wire 1 ; q [12] $end
$var wire 1 < q [11] $end
$var wire 1 = q [10] $end
$var wire 1 > q [9] $end
$var wire 1 ? q [8] $end
$var wire 1 @ q [7] $end
$var wire 1 A q [6] $end
$var wire 1 B q [5] $end
$var wire 1 C q [4] $end
$var wire 1 D q [3] $end
$var wire 1 E q [2] $end
$var wire 1 F q [1] $end
$var wire 1 G q [0] $end

$scope module i1 $end
$var wire 1 H gnd $end
$var wire 1 I vcc $end
$var wire 1 J unknown $end
$var wire 1 K devoe $end
$var wire 1 L devclrn $end
$var wire 1 M devpor $end
$var wire 1 N ww_devoe $end
$var wire 1 O ww_devclrn $end
$var wire 1 P ww_devpor $end
$var wire 1 Q ww_dmx [2] $end
$var wire 1 R ww_dmx [1] $end
$var wire 1 S ww_dmx [0] $end
$var wire 1 T ww_data [15] $end
$var wire 1 U ww_data [14] $end
$var wire 1 V ww_data [13] $end
$var wire 1 W ww_data [12] $end
$var wire 1 X ww_data [11] $end
$var wire 1 Y ww_data [10] $end
$var wire 1 Z ww_data [9] $end
$var wire 1 [ ww_data [8] $end
$var wire 1 \ ww_data [7] $end
$var wire 1 ] ww_data [6] $end
$var wire 1 ^ ww_data [5] $end
$var wire 1 _ ww_data [4] $end
$var wire 1 ` ww_data [3] $end
$var wire 1 a ww_data [2] $end
$var wire 1 b ww_data [1] $end
$var wire 1 c ww_data [0] $end
$var wire 1 d ww_mux [2] $end
$var wire 1 e ww_mux [1] $end
$var wire 1 f ww_mux [0] $end
$var wire 1 g ww_clk $end
$var wire 1 h ww_q [15] $end
$var wire 1 i ww_q [14] $end
$var wire 1 j ww_q [13] $end
$var wire 1 k ww_q [12] $end
$var wire 1 l ww_q [11] $end
$var wire 1 m ww_q [10] $end
$var wire 1 n ww_q [9] $end
$var wire 1 o ww_q [8] $end
$var wire 1 p ww_q [7] $end
$var wire 1 q ww_q [6] $end
$var wire 1 r ww_q [5] $end
$var wire 1 s ww_q [4] $end
$var wire 1 t ww_q [3] $end
$var wire 1 u ww_q [2] $end
$var wire 1 v ww_q [1] $end
$var wire 1 w ww_q [0] $end
$var wire 1 x \~QUARTUS_CREATED_GND~I_combout\ $end
$var wire 1 y \clk~input_o\ $end
$var wire 1 z \clk~inputCLKENA0_outclk\ $end
$var wire 1 { \mux[0]~input_o\ $end
$var wire 1 | \mux[2]~input_o\ $end
$var wire 1 } \mux[1]~input_o\ $end
$var wire 1 ~ \data[0]~input_o\ $end
$var wire 1 !! \dmx[2]~input_o\ $end
$var wire 1 "! \dmx[0]~input_o\ $end
$var wire 1 #! \dmx[1]~input_o\ $end
$var wire 1 $! \Equal0~1_combout\ $end
$var wire 1 %! \r7[0]~feeder_combout\ $end
$var wire 1 &! \Equal0~3_combout\ $end
$var wire 1 '! \Equal0~2_combout\ $end
$var wire 1 (! \r1[0]~feeder_combout\ $end
$var wire 1 )! \Equal0~0_combout\ $end
$var wire 1 *! \q~0_combout\ $end
$var wire 1 +! \Equal0~5_combout\ $end
$var wire 1 ,! \r4[0]~feeder_combout\ $end
$var wire 1 -! \Equal0~7_combout\ $end
$var wire 1 .! \r2[0]~feeder_combout\ $end
$var wire 1 /! \Equal0~4_combout\ $end
$var wire 1 0! \r0[0]~feeder_combout\ $end
$var wire 1 1! \Equal0~6_combout\ $end
$var wire 1 2! \q~1_combout\ $end
$var wire 1 3! \q~2_combout\ $end
$var wire 1 4! \q[0]~reg0_q\ $end
$var wire 1 5! \data[1]~input_o\ $end
$var wire 1 6! \q~4_combout\ $end
$var wire 1 7! \r7[1]~feeder_combout\ $end
$var wire 1 8! \q~3_combout\ $end
$var wire 1 9! \q~5_combout\ $end
$var wire 1 :! \q[1]~reg0_q\ $end
$var wire 1 ;! \data[2]~input_o\ $end
$var wire 1 <! \q~7_combout\ $end
$var wire 1 =! \r3[2]~feeder_combout\ $end
$var wire 1 >! \r7[2]~feeder_combout\ $end
$var wire 1 ?! \q~6_combout\ $end
$var wire 1 @! \q~8_combout\ $end
$var wire 1 A! \q[2]~reg0_q\ $end
$var wire 1 B! \data[3]~input_o\ $end
$var wire 1 C! \r3[3]~feeder_combout\ $end
$var wire 1 D! \r1[3]~feeder_combout\ $end
$var wire 1 E! \q~9_combout\ $end
$var wire 1 F! \r2[3]~feeder_combout\ $end
$var wire 1 G! \q~10_combout\ $end
$var wire 1 H! \q~11_combout\ $end
$var wire 1 I! \q[3]~reg0_q\ $end
$var wire 1 J! \data[4]~input_o\ $end
$var wire 1 K! \q~12_combout\ $end
$var wire 1 L! \r2[4]~feeder_combout\ $end
$var wire 1 M! \q~13_combout\ $end
$var wire 1 N! \q~14_combout\ $end
$var wire 1 O! \q[4]~reg0_q\ $end
$var wire 1 P! \data[5]~input_o\ $end
$var wire 1 Q! \r4[5]~feeder_combout\ $end
$var wire 1 R! \r2[5]~feeder_combout\ $end
$var wire 1 S! \q~16_combout\ $end
$var wire 1 T! \r3[5]~feeder_combout\ $end
$var wire 1 U! \q~15_combout\ $end
$var wire 1 V! \q~17_combout\ $end
$var wire 1 W! \q[5]~reg0_q\ $end
$var wire 1 X! \data[6]~input_o\ $end
$var wire 1 Y! \r7[6]~feeder_combout\ $end
$var wire 1 Z! \r3[6]~feeder_combout\ $end
$var wire 1 [! \r1[6]~feeder_combout\ $end
$var wire 1 \! \q~18_combout\ $end
$var wire 1 ]! \r0[6]~feeder_combout\ $end
$var wire 1 ^! \q~19_combout\ $end
$var wire 1 _! \q~20_combout\ $end
$var wire 1 `! \q[6]~reg0_q\ $end
$var wire 1 a! \data[7]~input_o\ $end
$var wire 1 b! \r4[7]~feeder_combout\ $end
$var wire 1 c! \r0[7]~feeder_combout\ $end
$var wire 1 d! \q~22_combout\ $end
$var wire 1 e! \r3[7]~feeder_combout\ $end
$var wire 1 f! \r1[7]~feeder_combout\ $end
$var wire 1 g! \q~21_combout\ $end
$var wire 1 h! \q~23_combout\ $end
$var wire 1 i! \q[7]~reg0_q\ $end
$var wire 1 j! \data[8]~input_o\ $end
$var wire 1 k! \r0[8]~feeder_combout\ $end
$var wire 1 l! \r4[8]~feeder_combout\ $end
$var wire 1 m! \q~25_combout\ $end
$var wire 1 n! \r3[8]~feeder_combout\ $end
$var wire 1 o! \r1[8]~feeder_combout\ $end
$var wire 1 p! \q~24_combout\ $end
$var wire 1 q! \q~26_combout\ $end
$var wire 1 r! \q[8]~reg0_q\ $end
$var wire 1 s! \data[9]~input_o\ $end
$var wire 1 t! \r3[9]~feeder_combout\ $end
$var wire 1 u! \q~27_combout\ $end
$var wire 1 v! \q~28_combout\ $end
$var wire 1 w! \q~29_combout\ $end
$var wire 1 x! \q[9]~reg0_q\ $end
$var wire 1 y! \data[10]~input_o\ $end
$var wire 1 z! \r0[10]~feeder_combout\ $end
$var wire 1 {! \r2[10]~feeder_combout\ $end
$var wire 1 |! \q~31_combout\ $end
$var wire 1 }! \r3[10]~feeder_combout\ $end
$var wire 1 ~! \q~30_combout\ $end
$var wire 1 !" \q~32_combout\ $end
$var wire 1 "" \q[10]~reg0_q\ $end
$var wire 1 #" \data[11]~input_o\ $end
$var wire 1 $" \r0[11]~feeder_combout\ $end
$var wire 1 %" \r2[11]~feeder_combout\ $end
$var wire 1 &" \q~34_combout\ $end
$var wire 1 '" \r1[11]~feeder_combout\ $end
$var wire 1 (" \q~33_combout\ $end
$var wire 1 )" \q~35_combout\ $end
$var wire 1 *" \q[11]~reg0_q\ $end
$var wire 1 +" \data[12]~input_o\ $end
$var wire 1 ," \r4[12]~feeder_combout\ $end
$var wire 1 -" \r0[12]~feeder_combout\ $end
$var wire 1 ." \q~37_combout\ $end
$var wire 1 /" \r3[12]~feeder_combout\ $end
$var wire 1 0" \r7[12]~feeder_combout\ $end
$var wire 1 1" \r1[12]~feeder_combout\ $end
$var wire 1 2" \q~36_combout\ $end
$var wire 1 3" \q~38_combout\ $end
$var wire 1 4" \q[12]~reg0_q\ $end
$var wire 1 5" \data[13]~input_o\ $end
$var wire 1 6" \r2[13]~feeder_combout\ $end
$var wire 1 7" \q~40_combout\ $end
$var wire 1 8" \r1[13]~feeder_combout\ $end
$var wire 1 9" \q~39_combout\ $end
$var wire 1 :" \q~41_combout\ $end
$var wire 1 ;" \q[13]~reg0_q\ $end
$var wire 1 <" \data[14]~input_o\ $end
$var wire 1 =" \q~43_combout\ $end
$var wire 1 >" \q~42_combout\ $end
$var wire 1 ?" \q~44_combout\ $end
$var wire 1 @" \q[14]~reg0_q\ $end
$var wire 1 A" \data[15]~input_o\ $end
$var wire 1 B" \r2[15]~feeder_combout\ $end
$var wire 1 C" \r4[15]~feeder_combout\ $end
$var wire 1 D" \q~46_combout\ $end
$var wire 1 E" \r1[15]~feeder_combout\ $end
$var wire 1 F" \r7[15]~feeder_combout\ $end
$var wire 1 G" \q~45_combout\ $end
$var wire 1 H" \q~47_combout\ $end
$var wire 1 I" \q[15]~reg0_q\ $end
$var wire 1 J" r4 [15] $end
$var wire 1 K" r4 [14] $end
$var wire 1 L" r4 [13] $end
$var wire 1 M" r4 [12] $end
$var wire 1 N" r4 [11] $end
$var wire 1 O" r4 [10] $end
$var wire 1 P" r4 [9] $end
$var wire 1 Q" r4 [8] $end
$var wire 1 R" r4 [7] $end
$var wire 1 S" r4 [6] $end
$var wire 1 T" r4 [5] $end
$var wire 1 U" r4 [4] $end
$var wire 1 V" r4 [3] $end
$var wire 1 W" r4 [2] $end
$var wire 1 X" r4 [1] $end
$var wire 1 Y" r4 [0] $end
$var wire 1 Z" r0 [15] $end
$var wire 1 [" r0 [14] $end
$var wire 1 \" r0 [13] $end
$var wire 1 ]" r0 [12] $end
$var wire 1 ^" r0 [11] $end
$var wire 1 _" r0 [10] $end
$var wire 1 `" r0 [9] $end
$var wire 1 a" r0 [8] $end
$var wire 1 b" r0 [7] $end
$var wire 1 c" r0 [6] $end
$var wire 1 d" r0 [5] $end
$var wire 1 e" r0 [4] $end
$var wire 1 f" r0 [3] $end
$var wire 1 g" r0 [2] $end
$var wire 1 h" r0 [1] $end
$var wire 1 i" r0 [0] $end
$var wire 1 j" r6 [15] $end
$var wire 1 k" r6 [14] $end
$var wire 1 l" r6 [13] $end
$var wire 1 m" r6 [12] $end
$var wire 1 n" r6 [11] $end
$var wire 1 o" r6 [10] $end
$var wire 1 p" r6 [9] $end
$var wire 1 q" r6 [8] $end
$var wire 1 r" r6 [7] $end
$var wire 1 s" r6 [6] $end
$var wire 1 t" r6 [5] $end
$var wire 1 u" r6 [4] $end
$var wire 1 v" r6 [3] $end
$var wire 1 w" r6 [2] $end
$var wire 1 x" r6 [1] $end
$var wire 1 y" r6 [0] $end
$var wire 1 z" r2 [15] $end
$var wire 1 {" r2 [14] $end
$var wire 1 |" r2 [13] $end
$var wire 1 }" r2 [12] $end
$var wire 1 ~" r2 [11] $end
$var wire 1 !# r2 [10] $end
$var wire 1 "# r2 [9] $end
$var wire 1 ## r2 [8] $end
$var wire 1 $# r2 [7] $end
$var wire 1 %# r2 [6] $end
$var wire 1 &# r2 [5] $end
$var wire 1 '# r2 [4] $end
$var wire 1 (# r2 [3] $end
$var wire 1 )# r2 [2] $end
$var wire 1 *# r2 [1] $end
$var wire 1 +# r2 [0] $end
$var wire 1 ,# r7 [15] $end
$var wire 1 -# r7 [14] $end
$var wire 1 .# r7 [13] $end
$var wire 1 /# r7 [12] $end
$var wire 1 0# r7 [11] $end
$var wire 1 1# r7 [10] $end
$var wire 1 2# r7 [9] $end
$var wire 1 3# r7 [8] $end
$var wire 1 4# r7 [7] $end
$var wire 1 5# r7 [6] $end
$var wire 1 6# r7 [5] $end
$var wire 1 7# r7 [4] $end
$var wire 1 8# r7 [3] $end
$var wire 1 9# r7 [2] $end
$var wire 1 :# r7 [1] $end
$var wire 1 ;# r7 [0] $end
$var wire 1 <# r3 [15] $end
$var wire 1 =# r3 [14] $end
$var wire 1 ># r3 [13] $end
$var wire 1 ?# r3 [12] $end
$var wire 1 @# r3 [11] $end
$var wire 1 A# r3 [10] $end
$var wire 1 B# r3 [9] $end
$var wire 1 C# r3 [8] $end
$var wire 1 D# r3 [7] $end
$var wire 1 E# r3 [6] $end
$var wire 1 F# r3 [5] $end
$var wire 1 G# r3 [4] $end
$var wire 1 H# r3 [3] $end
$var wire 1 I# r3 [2] $end
$var wire 1 J# r3 [1] $end
$var wire 1 K# r3 [0] $end
$var wire 1 L# r5 [15] $end
$var wire 1 M# r5 [14] $end
$var wire 1 N# r5 [13] $end
$var wire 1 O# r5 [12] $end
$var wire 1 P# r5 [11] $end
$var wire 1 Q# r5 [10] $end
$var wire 1 R# r5 [9] $end
$var wire 1 S# r5 [8] $end
$var wire 1 T# r5 [7] $end
$var wire 1 U# r5 [6] $end
$var wire 1 V# r5 [5] $end
$var wire 1 W# r5 [4] $end
$var wire 1 X# r5 [3] $end
$var wire 1 Y# r5 [2] $end
$var wire 1 Z# r5 [1] $end
$var wire 1 [# r5 [0] $end
$var wire 1 \# r1 [15] $end
$var wire 1 ]# r1 [14] $end
$var wire 1 ^# r1 [13] $end
$var wire 1 _# r1 [12] $end
$var wire 1 `# r1 [11] $end
$var wire 1 a# r1 [10] $end
$var wire 1 b# r1 [9] $end
$var wire 1 c# r1 [8] $end
$var wire 1 d# r1 [7] $end
$var wire 1 e# r1 [6] $end
$var wire 1 f# r1 [5] $end
$var wire 1 g# r1 [4] $end
$var wire 1 h# r1 [3] $end
$var wire 1 i# r1 [2] $end
$var wire 1 j# r1 [1] $end
$var wire 1 k# r1 [0] $end
$var wire 1 l# ALT_INV_r2 [15] $end
$var wire 1 m# ALT_INV_r2 [14] $end
$var wire 1 n# ALT_INV_r2 [13] $end
$var wire 1 o# ALT_INV_r2 [12] $end
$var wire 1 p# ALT_INV_r2 [11] $end
$var wire 1 q# ALT_INV_r2 [10] $end
$var wire 1 r# ALT_INV_r2 [9] $end
$var wire 1 s# ALT_INV_r2 [8] $end
$var wire 1 t# ALT_INV_r2 [7] $end
$var wire 1 u# ALT_INV_r2 [6] $end
$var wire 1 v# ALT_INV_r2 [5] $end
$var wire 1 w# ALT_INV_r2 [4] $end
$var wire 1 x# ALT_INV_r2 [3] $end
$var wire 1 y# ALT_INV_r2 [2] $end
$var wire 1 z# ALT_INV_r2 [1] $end
$var wire 1 {# ALT_INV_r2 [0] $end
$var wire 1 |# \ALT_INV_q~36_combout\ $end
$var wire 1 }# ALT_INV_r7 [15] $end
$var wire 1 ~# ALT_INV_r7 [14] $end
$var wire 1 !$ ALT_INV_r7 [13] $end
$var wire 1 "$ ALT_INV_r7 [12] $end
$var wire 1 #$ ALT_INV_r7 [11] $end
$var wire 1 $$ ALT_INV_r7 [10] $end
$var wire 1 %$ ALT_INV_r7 [9] $end
$var wire 1 &$ ALT_INV_r7 [8] $end
$var wire 1 '$ ALT_INV_r7 [7] $end
$var wire 1 ($ ALT_INV_r7 [6] $end
$var wire 1 )$ ALT_INV_r7 [5] $end
$var wire 1 *$ ALT_INV_r7 [4] $end
$var wire 1 +$ ALT_INV_r7 [3] $end
$var wire 1 ,$ ALT_INV_r7 [2] $end
$var wire 1 -$ ALT_INV_r7 [1] $end
$var wire 1 .$ ALT_INV_r7 [0] $end
$var wire 1 /$ ALT_INV_r3 [15] $end
$var wire 1 0$ ALT_INV_r3 [14] $end
$var wire 1 1$ ALT_INV_r3 [13] $end
$var wire 1 2$ ALT_INV_r3 [12] $end
$var wire 1 3$ ALT_INV_r3 [11] $end
$var wire 1 4$ ALT_INV_r3 [10] $end
$var wire 1 5$ ALT_INV_r3 [9] $end
$var wire 1 6$ ALT_INV_r3 [8] $end
$var wire 1 7$ ALT_INV_r3 [7] $end
$var wire 1 8$ ALT_INV_r3 [6] $end
$var wire 1 9$ ALT_INV_r3 [5] $end
$var wire 1 :$ ALT_INV_r3 [4] $end
$var wire 1 ;$ ALT_INV_r3 [3] $end
$var wire 1 <$ ALT_INV_r3 [2] $end
$var wire 1 =$ ALT_INV_r3 [1] $end
$var wire 1 >$ ALT_INV_r3 [0] $end
$var wire 1 ?$ ALT_INV_r5 [15] $end
$var wire 1 @$ ALT_INV_r5 [14] $end
$var wire 1 A$ ALT_INV_r5 [13] $end
$var wire 1 B$ ALT_INV_r5 [12] $end
$var wire 1 C$ ALT_INV_r5 [11] $end
$var wire 1 D$ ALT_INV_r5 [10] $end
$var wire 1 E$ ALT_INV_r5 [9] $end
$var wire 1 F$ ALT_INV_r5 [8] $end
$var wire 1 G$ ALT_INV_r5 [7] $end
$var wire 1 H$ ALT_INV_r5 [6] $end
$var wire 1 I$ ALT_INV_r5 [5] $end
$var wire 1 J$ ALT_INV_r5 [4] $end
$var wire 1 K$ ALT_INV_r5 [3] $end
$var wire 1 L$ ALT_INV_r5 [2] $end
$var wire 1 M$ ALT_INV_r5 [1] $end
$var wire 1 N$ ALT_INV_r5 [0] $end
$var wire 1 O$ ALT_INV_r1 [15] $end
$var wire 1 P$ ALT_INV_r1 [14] $end
$var wire 1 Q$ ALT_INV_r1 [13] $end
$var wire 1 R$ ALT_INV_r1 [12] $end
$var wire 1 S$ ALT_INV_r1 [11] $end
$var wire 1 T$ ALT_INV_r1 [10] $end
$var wire 1 U$ ALT_INV_r1 [9] $end
$var wire 1 V$ ALT_INV_r1 [8] $end
$var wire 1 W$ ALT_INV_r1 [7] $end
$var wire 1 X$ ALT_INV_r1 [6] $end
$var wire 1 Y$ ALT_INV_r1 [5] $end
$var wire 1 Z$ ALT_INV_r1 [4] $end
$var wire 1 [$ ALT_INV_r1 [3] $end
$var wire 1 \$ ALT_INV_r1 [2] $end
$var wire 1 ]$ ALT_INV_r1 [1] $end
$var wire 1 ^$ ALT_INV_r1 [0] $end
$var wire 1 _$ \ALT_INV_q~34_combout\ $end
$var wire 1 `$ ALT_INV_r4 [15] $end
$var wire 1 a$ ALT_INV_r4 [14] $end
$var wire 1 b$ ALT_INV_r4 [13] $end
$var wire 1 c$ ALT_INV_r4 [12] $end
$var wire 1 d$ ALT_INV_r4 [11] $end
$var wire 1 e$ ALT_INV_r4 [10] $end
$var wire 1 f$ ALT_INV_r4 [9] $end
$var wire 1 g$ ALT_INV_r4 [8] $end
$var wire 1 h$ ALT_INV_r4 [7] $end
$var wire 1 i$ ALT_INV_r4 [6] $end
$var wire 1 j$ ALT_INV_r4 [5] $end
$var wire 1 k$ ALT_INV_r4 [4] $end
$var wire 1 l$ ALT_INV_r4 [3] $end
$var wire 1 m$ ALT_INV_r4 [2] $end
$var wire 1 n$ ALT_INV_r4 [1] $end
$var wire 1 o$ ALT_INV_r4 [0] $end
$var wire 1 p$ ALT_INV_r0 [15] $end
$var wire 1 q$ ALT_INV_r0 [14] $end
$var wire 1 r$ ALT_INV_r0 [13] $end
$var wire 1 s$ ALT_INV_r0 [12] $end
$var wire 1 t$ ALT_INV_r0 [11] $end
$var wire 1 u$ ALT_INV_r0 [10] $end
$var wire 1 v$ ALT_INV_r0 [9] $end
$var wire 1 w$ ALT_INV_r0 [8] $end
$var wire 1 x$ ALT_INV_r0 [7] $end
$var wire 1 y$ ALT_INV_r0 [6] $end
$var wire 1 z$ ALT_INV_r0 [5] $end
$var wire 1 {$ ALT_INV_r0 [4] $end
$var wire 1 |$ ALT_INV_r0 [3] $end
$var wire 1 }$ ALT_INV_r0 [2] $end
$var wire 1 ~$ ALT_INV_r0 [1] $end
$var wire 1 !% ALT_INV_r0 [0] $end
$var wire 1 "% ALT_INV_r6 [15] $end
$var wire 1 #% ALT_INV_r6 [14] $end
$var wire 1 $% ALT_INV_r6 [13] $end
$var wire 1 %% ALT_INV_r6 [12] $end
$var wire 1 &% ALT_INV_r6 [11] $end
$var wire 1 '% ALT_INV_r6 [10] $end
$var wire 1 (% ALT_INV_r6 [9] $end
$var wire 1 )% ALT_INV_r6 [8] $end
$var wire 1 *% ALT_INV_r6 [7] $end
$var wire 1 +% ALT_INV_r6 [6] $end
$var wire 1 ,% ALT_INV_r6 [5] $end
$var wire 1 -% ALT_INV_r6 [4] $end
$var wire 1 .% ALT_INV_r6 [3] $end
$var wire 1 /% ALT_INV_r6 [2] $end
$var wire 1 0% ALT_INV_r6 [1] $end
$var wire 1 1% ALT_INV_r6 [0] $end
$var wire 1 2% \ALT_INV_q~33_combout\ $end
$var wire 1 3% \ALT_INV_q~31_combout\ $end
$var wire 1 4% \ALT_INV_q~30_combout\ $end
$var wire 1 5% \ALT_INV_q~28_combout\ $end
$var wire 1 6% \ALT_INV_q~27_combout\ $end
$var wire 1 7% \ALT_INV_q~25_combout\ $end
$var wire 1 8% \ALT_INV_q~24_combout\ $end
$var wire 1 9% \ALT_INV_q~22_combout\ $end
$var wire 1 :% \ALT_INV_q~21_combout\ $end
$var wire 1 ;% \ALT_INV_q~19_combout\ $end
$var wire 1 <% \ALT_INV_q~18_combout\ $end
$var wire 1 =% \ALT_INV_q~16_combout\ $end
$var wire 1 >% \ALT_INV_q~15_combout\ $end
$var wire 1 ?% \ALT_INV_q~13_combout\ $end
$var wire 1 @% \ALT_INV_q~12_combout\ $end
$var wire 1 A% \ALT_INV_q~10_combout\ $end
$var wire 1 B% \ALT_INV_q~9_combout\ $end
$var wire 1 C% \ALT_INV_q~7_combout\ $end
$var wire 1 D% \ALT_INV_q~6_combout\ $end
$var wire 1 E% \ALT_INV_q~4_combout\ $end
$var wire 1 F% \ALT_INV_q~3_combout\ $end
$var wire 1 G% \ALT_INV_q~1_combout\ $end
$var wire 1 H% \ALT_INV_q~0_combout\ $end
$var wire 1 I% \ALT_INV_data[15]~input_o\ $end
$var wire 1 J% \ALT_INV_data[13]~input_o\ $end
$var wire 1 K% \ALT_INV_data[12]~input_o\ $end
$var wire 1 L% \ALT_INV_data[11]~input_o\ $end
$var wire 1 M% \ALT_INV_data[10]~input_o\ $end
$var wire 1 N% \ALT_INV_data[9]~input_o\ $end
$var wire 1 O% \ALT_INV_data[8]~input_o\ $end
$var wire 1 P% \ALT_INV_data[7]~input_o\ $end
$var wire 1 Q% \ALT_INV_data[6]~input_o\ $end
$var wire 1 R% \ALT_INV_data[5]~input_o\ $end
$var wire 1 S% \ALT_INV_data[4]~input_o\ $end
$var wire 1 T% \ALT_INV_data[3]~input_o\ $end
$var wire 1 U% \ALT_INV_data[2]~input_o\ $end
$var wire 1 V% \ALT_INV_data[1]~input_o\ $end
$var wire 1 W% \ALT_INV_dmx[1]~input_o\ $end
$var wire 1 X% \ALT_INV_dmx[0]~input_o\ $end
$var wire 1 Y% \ALT_INV_dmx[2]~input_o\ $end
$var wire 1 Z% \ALT_INV_data[0]~input_o\ $end
$var wire 1 [% \ALT_INV_mux[1]~input_o\ $end
$var wire 1 \% \ALT_INV_mux[2]~input_o\ $end
$var wire 1 ]% \ALT_INV_mux[0]~input_o\ $end
$var wire 1 ^% \ALT_INV_q~46_combout\ $end
$var wire 1 _% \ALT_INV_q~45_combout\ $end
$var wire 1 `% \ALT_INV_q~43_combout\ $end
$var wire 1 a% \ALT_INV_q~42_combout\ $end
$var wire 1 b% \ALT_INV_q~40_combout\ $end
$var wire 1 c% \ALT_INV_q~39_combout\ $end
$var wire 1 d% \ALT_INV_q~37_combout\ $end
$upscope $end
$upscope $end
$enddefinitions $end
#0
$dumpvars
0!
0H
1I
xJ
1K
1L
1M
1N
1O
1P
0g
xx
0y
0z
0{
0|
1}
0~
0!!
0"!
0#!
0$!
0%!
0&!
0'!
0(!
0)!
0*!
0+!
0,!
0-!
0.!
0/!
00!
11!
02!
03!
04!
15!
06!
17!
08!
09!
0:!
0;!
0<!
0=!
0>!
0?!
0@!
0A!
1B!
1C!
1D!
0E!
1F!
0G!
0H!
0I!
0J!
0K!
0L!
0M!
0N!
0O!
0P!
0Q!
0R!
0S!
0T!
0U!
0V!
0W!
0X!
0Y!
0Z!
0[!
0\!
0]!
0^!
0_!
0`!
0a!
0b!
0c!
0d!
0e!
0f!
0g!
0h!
0i!
0j!
0k!
0l!
0m!
0n!
0o!
0p!
0q!
0r!
0s!
0t!
0u!
0v!
0w!
0x!
0y!
0z!
0{!
0|!
0}!
0~!
0!"
0""
0#"
0$"
0%"
0&"
0'"
0("
0)"
0*"
0+"
0,"
0-"
0."
0/"
00"
01"
02"
03"
04"
05"
06"
07"
08"
09"
0:"
0;"
0<"
0="
0>"
0?"
0@"
0A"
0B"
0C"
0D"
0E"
0F"
0G"
0H"
0I"
1|#
1_$
12%
13%
14%
15%
16%
17%
18%
19%
1:%
1;%
1<%
1=%
1>%
1?%
1@%
1A%
1B%
1C%
1D%
1E%
1F%
1G%
1H%
1I%
1J%
1K%
1L%
1M%
1N%
1O%
1P%
1Q%
1R%
1S%
0T%
1U%
0V%
1W%
1X%
1Y%
1Z%
0[%
1\%
1]%
1^%
1_%
1`%
1a%
1b%
1c%
1d%
0"
0#
0$
0%
0&
0'
0(
0)
0*
0+
0,
0-
1.
0/
10
01
02
03
04
05
16
07
0Q
0R
0S
0T
0U
0V
0W
0X
0Y
0Z
0[
0\
0]
0^
0_
1`
0a
1b
0c
0d
1e
0f
0h
0i
0j
0k
0l
0m
0n
0o
0p
0q
0r
0s
0t
0u
0v
0w
0J"
0K"
0L"
0M"
0N"
0O"
0P"
0Q"
0R"
0S"
0T"
0U"
0V"
0W"
0X"
0Y"
0Z"
0["
0\"
0]"
0^"
0_"
0`"
0a"
0b"
0c"
0d"
0e"
0f"
0g"
0h"
0i"
0j"
0k"
0l"
0m"
0n"
0o"
0p"
0q"
0r"
0s"
0t"
0u"
0v"
0w"
0x"
0y"
0z"
0{"
0|"
0}"
0~"
0!#
0"#
0##
0$#
0%#
0&#
0'#
0(#
0)#
0*#
0+#
0,#
0-#
0.#
0/#
00#
01#
02#
03#
04#
05#
06#
07#
08#
09#
0:#
0;#
0<#
0=#
0>#
0?#
0@#
0A#
0B#
0C#
0D#
0E#
0F#
0G#
0H#
0I#
0J#
0K#
0L#
0M#
0N#
0O#
0P#
0Q#
0R#
0S#
0T#
0U#
0V#
0W#
0X#
0Y#
0Z#
0[#
0\#
0]#
0^#
0_#
0`#
0a#
0b#
0c#
0d#
0e#
0f#
0g#
0h#
0i#
0j#
0k#
1l#
1m#
1n#
1o#
1p#
1q#
1r#
1s#
1t#
1u#
1v#
1w#
1x#
1y#
1z#
1{#
1}#
1~#
1!$
1"$
1#$
1$$
1%$
1&$
1'$
1($
1)$
1*$
1+$
1,$
1-$
1.$
1/$
10$
11$
12$
13$
14$
15$
16$
17$
18$
19$
1:$
1;$
1<$
1=$
1>$
1?$
1@$
1A$
1B$
1C$
1D$
1E$
1F$
1G$
1H$
1I$
1J$
1K$
1L$
1M$
1N$
1O$
1P$
1Q$
1R$
1S$
1T$
1U$
1V$
1W$
1X$
1Y$
1Z$
1[$
1\$
1]$
1^$
1`$
1a$
1b$
1c$
1d$
1e$
1f$
1g$
1h$
1i$
1j$
1k$
1l$
1m$
1n$
1o$
1p$
1q$
1r$
1s$
1t$
1u$
1v$
1w$
1x$
1y$
1z$
1{$
1|$
1}$
1~$
1!%
1"%
1#%
1$%
1%%
1&%
1'%
1(%
1)%
1*%
1+%
1,%
1-%
1.%
1/%
10%
11%
08
09
0:
0;
0<
0=
0>
0?
0@
0A
0B
0C
0D
0E
0F
0G
$end
#5000
1!
14
1g
1S
1"!
1y
1z
0X%
1)!
01!
1h"
1f"
0|$
0~$
#10000
0!
12
0g
1Q
1!!
0y
0z
0Y%
1$!
0)!
#15000
1!
04
13
06
1g
0S
1R
0e
0}
1#!
0"!
1y
1z
1X%
0W%
1[%
16!
1G!
0$!
1+!
1Z#
1X#
0K$
0M$
0A%
0E%
19!
1H!
#20000
0!
03
02
17
0g
0R
0Q
1f
1{
0!!
0#!
0y
0z
1W%
1Y%
0]%
09!
0H!
0+!
11!
#25000
1!
12
16
1g
1Q
1e
1}
1!!
1y
1z
0Y%
0[%
06!
0G!
1-!
01!
1A%
1E%
#30000
0!
02
14
0g
1S
0Q
0!!
1"!
0y
0z
0X%
1Y%
1)!
0-!
#35000
1!
13
07
1g
1R
0f
0{
1#!
1y
1z
0W%
1]%
1'!
0)!
1j#
1h#
0[$
0]$
#40000
0!
03
04
06
0g
0S
0R
0e
0}
0#!
0"!
0y
0z
1X%
1W%
1[%
16!
18!
1E!
1G!
0'!
11!
0A%
0B%
0F%
0E%
19!
1H!
#45000
1!
13
14
17
1g
1S
1R
1f
1{
1#!
1"!
1y
1z
0X%
0W%
0]%
1'!
01!
1:!
1I!
1t
1v
1F
1D
#50000
0!
03
07
12
11
0g
0R
1Q
0f
1c
1~
0{
1!!
0#!
0y
0z
1W%
0Y%
1]%
0Z%
1%!
1(!
1,!
1.!
10!
1$!
0'!
