aula23/contador_assincrono_decrescente/simulation/qsim/contador_assincrono_decrescente.msim.vcd
$comment
	File created using the following command:
		vcd file contador_assincrono_decrescente.msim.vcd -direction
$end
$date
	Mon Nov 11 23:10:26 2019
$end
$version
	ModelSim Version 10.5b
$end
$timescale
	1ps
$end

$scope module contador_assincrono_decrescente_vhd_vec_tst $end
$var wire 1 ! clk $end
$var wire 1 " q0 $end
$var wire 1 # q1 $end

$scope module i1 $end
$var wire 1 $ gnd $end
$var wire 1 % vcc $end
$var wire 1 & unknown $end
$var wire 1 ' devoe $end
$var wire 1 ( devclrn $end
$var wire 1 ) devpor $end
$var wire 1 * ww_devoe $end
$var wire 1 + ww_devclrn $end
$var wire 1 , ww_devpor $end
$var wire 1 - ww_clk $end
$var wire 1 . ww_q0 $end
$var wire 1 / ww_q1 $end
$var wire 1 0 \~QUARTUS_CREATED_GND~I_combout\ $end
$var wire 1 1 \clk~input_o\ $end
$var wire 1 2 \sq0~0_combout\ $end
$var wire 1 3 \sq0~feeder_combout\ $end
$var wire 1 4 \sq0~q\ $end
$var wire 1 5 \sq1~q\ $end
$var wire 1 6 \sq1~0_combout\ $end
$var wire 1 7 \sq1~feeder_combout\ $end
$var wire 1 8 \sq1~DUPLICATE_q\ $end
$var wire 1 9 \ALT_INV_sq1~0_combout\ $end
$var wire 1 : \ALT_INV_sq0~0_combout\ $end
$var wire 1 ; \ALT_INV_sq1~q\ $end
$var wire 1 < \ALT_INV_sq0~q\ $end
$upscope $end
$upscope $end
$enddefinitions $end
#0
$dumpvars
0!
0"
0#
0$
1%
x&
1'
1(
1)
1*
1+
1,
0-
0.
0/
x0
01
12
13
04
05
16
17
08
09
0:
1;
1<
$end
#20000
1!
1-
11
14
0<
15
18
02
0;
1:
1.
06
03
19
1"
1/
07
1#
#40000
0!
0-
01
#60000
1!
1-
11
04
1<
12
0:
0.
13
0"
#80000
0!
0-
01
#100000
1!
1-
11
14
0<
05
08
02
1;
1:
1.
16
03
09
1"
0/
17
0#
#120000
0!
0-
01
#140000
1!
1-
11
04
1<
12
0:
0.
13
0"
#160000
0!
0-
01
#180000
1!
1-
11
14
0<
15
18
02
0;
1:
1.
06
03
19
1"
1/
07
1#
#200000
0!
0-
01
#220000
1!
1-
11
04
1<
12
0:
0.
13
0"
#240000
0!
0-
01
#260000
1!
1-
11
14
0<
05
08
02
1;
1:
1.
16
03
09
1"
0/
17
0#
#280000
0!
0-
01
#300000
1!
1-
11
04
1<
12
0:
0.
13
0"
#320000
0!
0-
01
#340000
1!
1-
11
14
0<
15
18
02
0;
1:
1.
06
03
19
1"
1/
07
1#
#360000
0!
0-
01
#380000
1!
1-
11
04
1<
12
0:
0.
13
0"
#400000
0!
0-
01
#420000
1!
1-
11
14
0<
05
08
02
1;
1:
1.
16
03
09
1"
0/
17
0#
#440000
0!
0-
01
#460000
1!
1-
11
04
1<
12
0:
0.
13
0"
#480000
0!
0-
01
#500000
1!
1-
11
14
0<
15
18
02
0;
1:
1.
06
03
19
1"
1/
07
1#
#520000
0!
0-
01
#540000
1!
1-
11
04
1<
12
0:
0.
13
0"
#560000
0!
0-
01
#580000
1!
1-
11
14
0<
05
08
02
1;
1:
1.
16
03
09
1"
0/
17
0#
#600000
0!
0-
01
#620000
1!
1-
11
04
1<
12
0:
0.
13
0"
#640000
0!
0-
01
#660000
1!
1-
11
14
0<
15
18
02
0;
1:
1.
06
03
19
1"
1/
07
1#
#680000
0!
0-
01
#700000
1!
1-
11
04
1<
12
0:
0.
13
0"
#720000
0!
0-
01
#740000
1!
1-
11
14
0<
05
08
02
1;
1:
1.
16
03
09
1"
0/
17
0#
#760000
0!
0-
01
#780000
1!
1-
11
04
1<
12
0:
0.
13
0"
#800000
0!
0-
01
#820000
1!
1-
11
14
0<
15
18
02
0;
1:
1.
06
03
19
1"
1/
07
1#
#840000
0!
0-
01
#860000
1!
1-
11
04
1<
12
0:
0.
13
0"
#880000
0!
0-
01
#900000
1!
1-
11
14
0<
05
08
02
1;
1:
1.
16
03
09
1"
0/
17
0#
#920000
0!
0-
01
#940000
1!
1-
11
04
1<
12
0:
0.
13
0"
#960000
0!
0-
01
#980000
1!
1-
11
14
0<
15
18
02
0;
1:
1.
06
03
19
1"
1/
07
1#
