aula20/latchrs/simulation/qsim/latchrs.msim.vcd
$comment
	File created using the following command:
		vcd file latchrs.msim.vcd -direction
$end
$date
	Mon Nov 11 22:08:35 2019
$end
$version
	ModelSim Version 10.5b
$end
$timescale
	1ps
$end

$scope module latchrs_vhd_vec_tst $end
$var wire 1 ! q $end
$var wire 1 " qb $end
$var wire 1 # r $end
$var wire 1 $ s $end

$scope module i1 $end
$var wire 1 % gnd $end
$var wire 1 & vcc $end
$var wire 1 ' unknown $end
$var wire 1 ( devoe $end
$var wire 1 ) devclrn $end
$var wire 1 * devpor $end
$var wire 1 + ww_devoe $end
$var wire 1 , ww_devclrn $end
$var wire 1 - ww_devpor $end
$var wire 1 . ww_r $end
$var wire 1 / ww_s $end
$var wire 1 0 \q~input_o\ $end
$var wire 1 1 \qb~input_o\ $end
$var wire 1 2 \~QUARTUS_CREATED_GND~I_combout\ $end
$var wire 1 3 \s~input_o\ $end
$var wire 1 4 \r~input_o\ $end
$var wire 1 5 \q~3_combout\ $end
$var wire 1 6 \qb~2_combout\ $end
$var wire 1 7 \ALT_INV_r~input_o\ $end
$var wire 1 8 \ALT_INV_s~input_o\ $end
$var wire 1 9 \ALT_INV_q~3_combout\ $end
$upscope $end
$upscope $end
$enddefinitions $end
#0
$dumpvars
x!
x"
0#
0$
0%
1&
x'
1(
1)
1*
1+
1,
1-
0.
0/
x0
x1
x2
03
04
x5
x6
17
18
x9
$end
#5000
1#
1.
14
07
05
19
16
0!
1"
00
11
#7500
1$
1/
13
08
06
0"
01
#10000
0#
0.
04
17
15
09
1!
10
#15000
1#
0$
1.
0/
03
14
07
18
05
19
16
0!
1"
00
11
#20000
0#
0.
04
17
#22500
1$
1/
13
08
15
06
09
0"
1!
10
01
#25000
1#
1.
14
07
05
19
0!
00
#30000
0#
0$
0.
0/
03
04
17
18
16
1"
11
#35000
1#
1.
14
07
#37500
1$
1/
13
08
06
0"
01
#40000
0#
0.
04
17
15
09
1!
10
#45000
1#
0$
1.
0/
03
14
07
18
05
19
16
0!
1"
00
11
#50000
0#
0.
04
17
#52500
1$
1/
13
08
15
06
09
0"
1!
10
01
#55000
1#
1.
14
07
05
19
0!
00
#60000
0#
0$
0.
0/
03
04
17
18
16
1"
11
#65000
1#
1.
14
07
#67500
1$
1/
13
08
06
0"
01
#70000
0#
0.
04
17
15
09
1!
10
#75000
1#
0$
1.
0/
03
14
07
18
05
19
16
0!
1"
00
11
#80000
0#
0.
04
17
#82500
1$
1/
13
08
15
06
09
0"
1!
10
01
#85000
1#
1.
14
07
05
19
0!
00
#90000
0#
0$
0.
0/
03
04
17
18
16
1"
11
#95000
1#
1.
14
07
#97500
1$
1/
13
08
06
0"
01
#100000
0#
0.
04
17
15
09
1!
10
#105000
1#
0$
1.
0/
03
14
07
18
05
19
16
0!
1"
00
11
#110000
0#
0.
04
17
#112500
1$
1/
13
08
15
06
09
0"
1!
10
01
#115000
1#
1.
14
07
05
19
0!
00
#120000
0#
0$
0.
0/
03
04
17
18
16
1"
11
#125000
1#
1.
14
07
#127500
1$
1/
13
08
06
0"
01
#130000
0#
0.
04
17
15
09
1!
10
#135000
1#
0$
1.
0/
03
14
07
18
05
19
16
0!
1"
00
11
#140000
0#
0.
04
17
#142500
1$
1/
13
08
15
06
09
0"
1!
10
01
#145000
1#
1.
14
07
05
19
0!
00
#150000
0#
0$
0.
0/
03
04
17
18
16
1"
11
#155000
1#
1.
14
07
#157500
1$
1/
13
08
06
0"
01
#160000
0#
0.
04
17
15
09
1!
10
#165000
1#
0$
1.
0/
03
14
07
18
05
19
16
0!
1"
00
11
#170000
0#
0.
04
17
#172500
1$
1/
13
08
15
06
09
0"
1!
10
01
#175000
1#
1.
14
07
05
19
0!
00
#180000
0#
0$
0.
0/
03
04
17
18
16
1"
11
#185000
1#
1.
14
07
#187500
1$
1/
13
08
06
0"
01
#190000
0#
0.
04
17
15
09
1!
10
#195000
1#
0$
1.
0/
03
14
07
18
05
19
16
0!
1"
00
11
#200000
0#
0.
04
17
#202500
1$
1/
13
08
15
06
09
0"
1!
10
01
#205000
1#
1.
14
07
05
19
0!
00
#210000
0#
0$
0.
0/
03
04
17
18
16
1"
11
#215000
1#
1.
14
07
#217500
1$
1/
13
08
06
0"
01
#220000
0#
0.
04
17
15
09
1!
10
#225000
1#
0$
1.
0/
03
14
07
18
05
19
16
0!
1"
00
11
#230000
0#
0.
04
17
#232500
1$
1/
13
08
15
06
09
0"
1!
10
01
#235000
1#
1.
14
07
05
19
0!
00
#240000
0#
0$
0.
0/
03
04
17
18
16
1"
11
#245000
1#
1.
14
07
#247500
1$
1/
13
08
06
0"
01
#250000
0#
0.
04
17
15
09
1!
10
#255000
1#
0$
1.
0/
03
14
07
18
05
19
16
0!
1"
00
11
#260000
0#
0.
04
17
#262500
1$
1/
13
08
15
06
09
0"
1!
10
01
#265000
1#
1.
14
07
05
19
0!
00
#270000
0#
0$
0.
0/
03
04
17
18
16
1"
11
#275000
1#
1.
14
07
#277500
1$
1/
13
08
06
0"
01
#280000
0#
0.
04
17
15
09
1!
10
#285000
1#
0$
1.
0/
03
14
07
18
05
19
16
0!
1"
00
11
#290000
0#
0.
04
17
#292500
1$
1/
13
08
15
06
09
0"
1!
10
01
#295000
1#
1.
14
07
05
19
0!
00
#300000
0#
0$
0.
0/
03
04
17
18
16
1"
11
#305000
1#
1.
14
07
#307500
1$
1/
13
08
06
0"
01
#310000
0#
0.
04
17
15
09
1!
10
#315000
1#
0$
1.
0/
03
14
07
18
05
19
16
0!
1"
00
11
#320000
0#
0.
04
17
#322500
1$
1/
13
08
15
06
09
0"
1!
10
01
#325000
1#
1.
14
07
05
19
0!
00
#330000
0#
0$
0.
0/
03
04
17
18
16
1"
11
#335000
1#
1.
14
07
#337500
1$
1/
13
08
06
0"
01
#340000
0#
0.
04
17
15
09
1!
10
#345000
1#
0$
1.
0/
03
14
07
18
05
19
16
0!
1"
00
11
#350000
0#
0.
04
17
#352500
1$
1/
13
08
15
06
09
0"
1!
10
01
#355000
1#
1.
14
07
05
19
0!
00
#360000
0#
0$
0.
0/
03
04
17
18
16
1"
11
#365000
1#
1.
14
07
#367500
1$
1/
13
08
06
0"
01
#370000
0#
0.
04
17
15
09
1!
10
#375000
1#
0$
1.
0/
03
14
07
18
05
19
16
0!
1"
00
11
#380000
0#
0.
04
17
#382500
1$
1/
13
08
15
06
09
0"
1!
10
01
#385000
1#
1.
14
07
05
19
0!
00
#390000
0#
0$
0.
0/
03
04
17
18
16
1"
11
#395000
1#
1.
14
07
#397500
1$
1/
13
08
06
0"
01
#400000
0#
0.
04
17
15
09
1!
10
#405000
1#
0$
1.
0/
03
14
07
18
05
19
16
0!
1"
00
11
#410000
0#
0.
04
17
#412500
1$
1/
13
08
15
06
09
0"
1!
10
01
#415000
1#
1.
14
07
05
19
0!
00
#420000
0#
0$
0.
0/
03
04
17
18
16
1"
11
#425000
1#
1.
14
07
#427500
1$
1/
13
08
06
0"
01
#430000
0#
0.
04
17
15
09
1!
10
#435000
1#
0$
1.
0/
03
14
07
18
05
19
16
0!
1"
00
11
#440000
0#
0.
04
17
#442500
1$
1/
13
08
15
06
09
0"
1!
10
01
#445000
1#
1.
14
07
05
19
0!
00
#450000
0#
0$
0.
0/
03
04
17
18
16
1"
11
#455000
1#
1.
14
07
#457500
1$
1/
13
08
06
0"
01
#460000
0#
0.
04
17
15
09
1!
10
#465000
1#
0$
1.
0/
03
14
07
18
05
19
16
0!
1"
00
11
#470000
0#
0.
04
17
#472500
1$
1/
13
08
15
06
09
0"
1!
10
01
#475000
1#
1.
14
07
05
19
0!
00
#480000
0#
0$
0.
0/
03
04
17
18
16
1"
11
#485000
1#
1.
14
07
#487500
1$
1/
13
08
06
0"
01
#490000
0#
0.
04
17
15
09
1!
10
#495000
1#
0$
1.
0/
03
14
07
18
05
19
16
0!
1"
00
11
#500000
0#
0.
04
17
#502500
1$
1/
13
08
15
06
09
0"
1!
10
01
#505000
1#
1.
14
07
05
19
0!
00
#510000
0#
0$
0.
0/
03
04
17
18
16
1"
11
#515000
1#
1.
14
07
#517500
1$
1/
13
08
06
0"
01
#520000
0#
0.
04
17
15
09
1!
10
#525000
1#
0$
1.
0/
03
14
07
18
05
19
16
0!
1"
00
11
#530000
0#
0.
04
17
#532500
1$
1/
13
08
15
06
09
0"
1!
10
01
#535000
1#
1.
14
07
05
19
0!
00
#540000
0#
0$
0.
0/
03
04
17
18
16
1"
11
#545000
1#
1.
14
07
#547500
1$
1/
13
08
06
0"
01
#550000
0#
0.
04
17
15
09
1!
10
#555000
1#
0$
1.
0/
03
14
07
18
05
19
16
0!
1"
00
11
#560000
0#
0.
04
17
#562500
1$
1/
13
08
15
06
09
0"
1!
10
01
#565000
1#
1.
14
07
05
19
0!
00
#570000
0#
0$
0.
0/
03
04
17
18
16
1"
11
#575000
1#
1.
14
07
#577500
1$
1/
13
08
06
0"
01
#580000
0#
0.
04
17
15
09
1!
10
#585000
1#
0$
1.
0/
03
14
07
18
05
19
16
0!
1"
00
11
#590000
0#
0.
04
17
#592500
1$
1/
13
08
15
06
09
0"
1!
10
01
#595000
1#
1.
14
07
05
19
0!
00
#600000
0#
0$
0.
0/
03
04
17
18
16
1"
11
#605000
1#
1.
14
07
#607500
1$
1/
13
08
06
0"
01
#610000
0#
0.
04
17
15
09
1!
10
#615000
1#
0$
1.
0/
03
14
07
18
05
19
16
0!
1"
00
11
#620000
0#
0.
04
17
#622500
1$
1/
13
08
15
06
09
0"
1!
10
01
#625000
1#
1.
14
07
05
19
0!
00
#630000
0#
0$
0.
0/
03
04
17
18
16
1"
11
#635000
1#
1.
14
07
#637500
1$
1/
13
08
06
0"
01
#640000
0#
0.
04
17
15
09
1!
10
#645000
1#
0$
1.
0/
03
14
07
18
05
19
16
0!
1"
00
11
#650000
0#
0.
04
17
#652500
1$
1/
13
08
15
06
09
0"
1!
10
01
#655000
1#
1.
14
07
05
19
0!
00
#660000
0#
0$
0.
0/
03
04
17
18
16
1"
11
#665000
1#
1.
14
07
#667500
1$
1/
13
08
06
0"
01
#670000
0#
0.
04
17
15
09
1!
10
#675000
1#
0$
1.
0/
03
14
07
18
05
19
16
0!
1"
00
11
#680000
0#
0.
04
17
#682500
1$
1/
13
08
15
06
09
0"
1!
10
01
#685000
1#
1.
14
07
05
19
0!
00
#690000
0#
0$
0.
0/
03
04
17
18
16
1"
11
#695000
1#
1.
14
07
#697500
1$
1/
13
08
06
0"
01
#700000
0#
0.
04
17
15
09
1!
10
#705000
1#
0$
1.
0/
03
14
07
18
05
19
16
0!
1"
00
11
#710000
0#
0.
04
17
#712500
1$
1/
13
08
15
06
09
0"
1!
10
01
#715000
1#
1.
14
07
05
19
0!
00
#720000
0#
0$
0.
0/
03
04
17
18
16
1"
11
#725000
1#
1.
14
07
#727500
1$
1/
13
08
06
0"
01
#730000
0#
0.
04
17
15
09
1!
10
#735000
1#
0$
1.
0/
03
14
07
18
05
19
16
0!
1"
00
11
#740000
0#
0.
04
17
#742500
1$
1/
13
08
15
06
09
0"
1!
10
01
#745000
1#
1.
14
07
05
19
0!
00
#750000
0#
0$
0.
0/
03
04
17
18
16
1"
11
#755000
1#
1.
14
07
#757500
1$
1/
13
08
06
0"
01
#760000
0#
0.
04
17
15
09
1!
10
#765000
1#
0$
1.
0/
03
14
07
18
05
19
16
0!
1"
00
11
#770000
0#
0.
04
17
#772500
1$
1/
13
08
15
06
09
0"
1!
10
01
#775000
1#
1.
14
07
05
19
0!
00
#780000
0#
0$
0.
0/
03
04
17
18
16
1"
11
#785000
1#
1.
14
07
#787500
1$
1/
13
08
06
0"
01
#790000
0#
0.
04
17
15
09
1!
10
#795000
1#
0$
1.
0/
03
14
07
18
05
19
16
0!
1"
00
11
#800000
0#
0.
04
17
#802500
1$
1/
13
08
15
06
09
0"
1!
10
01
#805000
1#
1.
14
07
05
19
0!
00
#810000
0#
0$
0.
0/
03
04
17
18
16
1"
11
#815000
1#
1.
14
07
#817500
1$
1/
13
08
06
0"
01
#820000
0#
0.
04
17
15
09
1!
10
#825000
1#
0$
1.
0/
03
14
07
18
05
19
16
0!
1"
00
11
#830000
0#
0.
04
17
#832500
1$
1/
13
08
15
06
09
0"
1!
10
01
#835000
1#
1.
14
07
05
19
0!
00
#840000
0#
0$
0.
0/
03
04
17
18
16
1"
11
#845000
1#
1.
14
07
#847500
1$
1/
13
08
06
0"
01
#850000
0#
0.
04
17
15
09
1!
10
#855000
1#
0$
1.
0/
03
14
07
18
05
19
16
0!
1"
00
11
#860000
0#
0.
04
17
#862500
1$
1/
13
08
15
06
09
0"
1!
10
01
#865000
1#
1.
14
07
05
19
0!
00
#870000
0#
0$
0.
0/
03
04
17
18
16
1"
11
#875000
1#
1.
14
07
#877500
1$
1/
13
08
06
0"
01
#880000
0#
0.
04
17
15
09
1!
10
#885000
1#
0$
1.
0/
03
14
07
18
05
19
16
0!
1"
00
11
#890000
0#
0.
04
17
#892500
1$
1/
13
08
15
06
09
0"
1!
10
01
#895000
1#
1.
14
07
05
19
0!
00
#900000
0#
0$
0.
0/
03
04
17
18
16
1"
11
#905000
1#
1.
14
07
#907500
1$
1/
13
08
06
0"
01
#910000
0#
0.
04
17
15
09
1!
10
#915000
1#
0$
1.
0/
03
14
07
18
05
19
16
0!
1"
00
11
#920000
0#
0.
04
17
#922500
1$
1/
13
08
15
06
09
0"
1!
10
01
#925000
1#
1.
14
07
05
19
0!
00
#930000
0#
0$
0.
0/
03
04
17
18
16
1"
11
#935000
1#
1.
14
07
#937500
1$
1/
13
08
06
0"
01
#940000
0#
0.
04
17
15
09
1!
10
#945000
1#
0$
1.
0/
03
14
07
18
05
19
16
0!
1"
00
11
#950000
0#
0.
04
17
#952500
1$
1/
13
08
15
06
09
0"
1!
10
01
#955000
1#
1.
14
07
05
19
0!
00
#960000
0#
0$
0.
0/
03
04
17
18
16
1"
11
#965000
1#
1.
14
07
#967500
1$
1/
13
08
06
0"
01
#970000
0#
0.
04
17
15
09
1!
10
#975000
1#
0$
1.
0/
03
14
07
18
05
19
16
0!
1"
00
11
#980000
0#
0.
04
17
#982500
1$
1/
13
08
15
06
09
0"
1!
10
01
#985000
1#
1.
14
07
05
19
0!
00
#990000
0#
0$
0.
0/
03
04
17
18
16
1"
11
#995000
1#
1.
14
07
#997500
1$
1/
13
08
06
0"
01
