aula26/exercicio2_painel_carro/simulation/qsim/exercicio2_painel_carro.msim.vcd
$comment
	File created using the following command:
		vcd file exercicio2_painel_carro.msim.vcd -direction
$end
$date
	Mon Nov 11 20:38:13 2019
$end
$version
	ModelSim Version 10.5b
$end
$timescale
	1ps
$end

$scope module exercicio2_painel_carro_vhd_vec_tst $end
$var wire 1 ! bt $end
$var wire 1 " clk $end
$var wire 1 # consumo $end
$var wire 1 $ km_parcial $end
$var wire 1 % km_restante $end
$var wire 1 & km_total $end

$scope module i1 $end
$var wire 1 ' gnd $end
$var wire 1 ( vcc $end
$var wire 1 ) unknown $end
$var wire 1 * devoe $end
$var wire 1 + devclrn $end
$var wire 1 , devpor $end
$var wire 1 - ww_devoe $end
$var wire 1 . ww_devclrn $end
$var wire 1 / ww_devpor $end
$var wire 1 0 ww_clk $end
$var wire 1 1 ww_bt $end
$var wire 1 2 ww_km_parcial $end
$var wire 1 3 ww_km_restante $end
$var wire 1 4 ww_consumo $end
$var wire 1 5 ww_km_total $end
$var wire 1 6 \~QUARTUS_CREATED_GND~I_combout\ $end
$var wire 1 7 \clk~input_o\ $end
$var wire 1 8 \clk~inputCLKENA0_outclk\ $end
$var wire 1 9 \bt~input_o\ $end
$var wire 1 : \s[0]~1_combout\ $end
$var wire 1 ; \prev_bt~feeder_combout\ $end
$var wire 1 < \prev_bt~q\ $end
$var wire 1 = \process_0~0_combout\ $end
$var wire 1 > \s[1]~0_combout\ $end
$var wire 1 ? \Mux0~0_combout\ $end
$var wire 1 @ \km_parcial~reg0_q\ $end
$var wire 1 A \Mux0~1_combout\ $end
$var wire 1 B \km_restante~reg0_q\ $end
$var wire 1 C \Mux0~2_combout\ $end
$var wire 1 D \consumo~reg0_q\ $end
$var wire 1 E \Mux2~0_combout\ $end
$var wire 1 F \km_total~reg0_q\ $end
$var wire 1 G s [1] $end
$var wire 1 H s [0] $end
$var wire 1 I \ALT_INV_bt~input_o\ $end
$var wire 1 J \ALT_INV_prev_bt~q\ $end
$var wire 1 K ALT_INV_s [1] $end
$var wire 1 L ALT_INV_s [0] $end
$var wire 1 M \ALT_INV_km_total~reg0_q\ $end
$upscope $end
$upscope $end
$enddefinitions $end
#0
$dumpvars
0!
0"
0#
0$
0%
1&
0'
1(
x)
1*
1+
1,
1-
1.
1/
00
01
02
03
04
15
x6
07
08
09
1:
0;
0<
0=
0>
0?
0@
0A
0B
1C
0D
1E
0F
1I
1J
1M
0G
0H
1K
1L
$end
#5000
1"
10
17
18
#10000
0"
1!
00
11
19
07
08
0I
1;
1=
1>
#15000
1"
10
17
18
1<
1H
1G
1D
1F
0M
0K
0L
0J
0=
0:
1A
0C
14
05
1#
0&
#20000
0"
0!
00
01
09
07
08
1I
0;
#25000
1"
10
17
18
0<
1J
#30000
0"
1!
00
11
19
07
08
0I
1;
1=
#35000
1"
10
17
18
1<
0H
1B
0D
1L
0J
0=
1:
1?
0A
04
13
0#
1%
#40000
0"
0!
00
01
09
07
08
1I
0;
#45000
1"
10
17
18
0<
1J
#50000
0"
1!
00
11
19
07
08
0I
1;
1=
0>
#55000
1"
10
17
18
1<
1H
0G
1@
0B
1K
0L
0J
0=
0:
0?
0E
03
12
0%
1$
#60000
0"
0!
00
01
09
07
08
1I
0;
#65000
1"
10
17
18
0<
1J
#70000
0"
1!
00
11
19
07
08
0I
1;
1=
#75000
1"
10
17
18
1<
0H
0@
0F
1M
1L
0J
0=
1:
1C
1E
02
15
0$
1&
#80000
0"
0!
00
01
09
07
08
1I
0;
#85000
1"
10
17
18
0<
1J
#90000
0"
1!
00
11
19
07
08
0I
1;
1=
1>
#95000
1"
10
17
18
1<
1H
1G
1D
1F
0M
0K
0L
0J
0=
0:
1A
0C
14
05
1#
0&
#100000
0"
0!
00
01
09
07
08
1I
0;
#105000
1"
10
17
18
0<
1J
#110000
0"
1!
00
11
19
07
08
0I
1;
1=
#115000
1"
10
17
18
1<
0H
1B
0D
1L
0J
0=
1:
1?
0A
04
13
0#
1%
#120000
0"
0!
00
01
09
07
08
1I
0;
#125000
1"
10
17
18
0<
1J
#130000
0"
1!
00
11
19
07
08
0I
1;
1=
0>
#135000
1"
10
17
18
1<
1H
0G
1@
0B
1K
0L
0J
0=
0:
0?
0E
03
12
0%
1$
#140000
0"
0!
00
01
09
07
08
1I
0;
#145000
1"
10
17
18
0<
1J
#150000
0"
1!
00
11
19
07
08
0I
1;
1=
#155000
1"
10
17
18
1<
0H
0@
0F
1M
1L
0J
0=
1:
1C
1E
02
15
0$
1&
#160000
0"
0!
00
01
09
07
08
1I
0;
#165000
1"
10
17
18
0<
1J
#170000
0"
1!
00
11
19
07
08
0I
1;
1=
1>
#175000
1"
10
17
18
1<
1H
1G
1D
1F
0M
0K
0L
0J
0=
0:
1A
0C
14
05
1#
0&
#180000
0"
0!
00
01
09
07
08
1I
0;
#185000
1"
10
17
18
0<
1J
#190000
0"
1!
00
11
19
07
08
0I
1;
1=
#195000
1"
10
17
18
1<
0H
1B
0D
1L
0J
0=
1:
1?
0A
04
13
0#
1%
#200000
0"
0!
00
01
09
07
08
1I
0;
#205000
1"
10
17
18
0<
1J
#210000
0"
1!
00
11
19
07
08
0I
1;
1=
0>
#215000
1"
10
17
18
1<
1H
0G
1@
0B
1K
0L
0J
0=
0:
0?
0E
03
12
0%
1$
#220000
0"
0!
00
01
09
07
08
1I
0;
#225000
1"
10
17
18
0<
1J
#230000
0"
1!
00
11
19
07
08
0I
1;
1=
#235000
1"
10
17
18
1<
0H
0@
0F
1M
1L
0J
0=
1:
1C
1E
02
15
0$
1&
#240000
0"
0!
00
01
09
07
08
1I
0;
#245000
1"
10
17
18
0<
1J
#250000
0"
1!
00
11
19
07
08
0I
1;
1=
1>
#255000
1"
10
17
18
1<
1H
1G
1D
1F
0M
0K
0L
0J
0=
0:
1A
0C
14
05
1#
0&
#260000
0"
0!
00
01
09
07
08
1I
0;
#265000
1"
10
17
18
0<
1J
#270000
0"
1!
00
11
19
07
08
0I
1;
1=
#275000
1"
10
17
18
1<
0H
1B
0D
1L
0J
0=
1:
1?
0A
04
13
0#
1%
#280000
0"
0!
00
01
09
07
08
1I
0;
#285000
1"
10
17
18
0<
1J
#290000
0"
1!
00
11
19
07
08
0I
1;
1=
0>
#295000
1"
10
17
18
1<
1H
0G
1@
0B
1K
0L
0J
0=
0:
0?
0E
03
12
0%
1$
#300000
0"
0!
00
01
09
07
08
1I
0;
#305000
1"
10
17
18
0<
1J
#310000
0"
1!
00
11
19
07
08
0I
1;
1=
#315000
1"
10
17
18
1<
0H
0@
0F
1M
1L
0J
0=
1:
1C
1E
02
15
0$
1&
#320000
0"
0!
00
01
09
07
08
1I
0;
#325000
1"
10
17
18
0<
1J
#330000
0"
1!
00
11
19
07
08
0I
1;
1=
1>
#335000
1"
10
17
18
1<
1H
1G
1D
1F
0M
0K
0L
0J
0=
0:
1A
0C
14
05
1#
0&
#340000
0"
0!
00
01
09
07
08
1I
0;
#345000
1"
10
17
18
0<
1J
#350000
0"
1!
00
11
19
07
08
0I
1;
1=
#355000
1"
10
17
18
1<
0H
1B
0D
1L
0J
0=
1:
1?
0A
04
13
0#
1%
#360000
0"
0!
00
01
09
07
08
1I
0;
#365000
1"
10
17
18
0<
1J
#370000
0"
1!
00
11
19
07
08
0I
1;
1=
0>
#375000
1"
10
17
18
1<
1H
0G
1@
0B
1K
0L
0J
0=
0:
0?
0E
03
12
0%
1$
#380000
0"
0!
00
01
09
07
08
1I
0;
#385000
1"
10
17
18
0<
1J
#390000
0"
1!
00
11
19
07
08
0I
1;
1=
#395000
1"
10
17
18
1<
0H
0@
0F
1M
1L
0J
0=
1:
1C
1E
02
15
0$
1&
#400000
0"
0!
00
01
09
07
08
1I
0;
#405000
1"
10
17
18
0<
1J
#410000
0"
1!
00
11
19
07
08
0I
1;
1=
1>
#415000
1"
10
17
18
1<
1H
1G
1D
1F
0M
0K
0L
0J
0=
0:
1A
0C
14
05
1#
0&
#420000
0"
0!
00
01
09
07
08
1I
0;
#425000
1"
10
17
18
0<
1J
#430000
0"
1!
00
11
19
07
08
0I
1;
1=
#435000
1"
10
17
18
1<
0H
1B
0D
1L
0J
0=
1:
1?
0A
04
13
0#
1%
#440000
0"
0!
00
01
09
07
08
1I
0;
#445000
1"
10
17
18
0<
1J
#450000
0"
1!
00
11
19
07
08
0I
1;
1=
0>
#455000
1"
10
17
18
1<
1H
0G
1@
0B
1K
0L
0J
0=
0:
0?
0E
03
12
0%
1$
#460000
0"
0!
00
01
09
07
08
1I
0;
#465000
1"
10
17
18
0<
1J
#470000
0"
1!
00
11
19
07
08
0I
1;
1=
#475000
1"
10
17
18
1<
0H
0@
0F
1M
1L
0J
0=
1:
1C
1E
02
15
0$
1&
#480000
0"
0!
00
01
09
07
08
1I
0;
#485000
1"
10
17
18
0<
1J
#490000
0"
1!
00
11
19
07
08
0I
1;
1=
1>
#495000
1"
10
17
18
1<
1H
1G
1D
1F
0M
0K
0L
0J
0=
0:
1A
0C
14
05
1#
0&
#500000
0"
0!
00
01
09
07
08
1I
0;
#505000
1"
10
17
18
0<
1J
#510000
0"
1!
00
11
19
07
08
0I
1;
1=
#515000
1"
10
17
18
1<
0H
1B
0D
1L
0J
0=
1:
1?
0A
04
13
0#
1%
#520000
0"
0!
00
01
09
07
08
1I
0;
#525000
1"
10
17
18
0<
1J
#530000
0"
1!
00
11
19
07
08
0I
1;
1=
0>
#535000
1"
10
17
18
1<
1H
0G
1@
0B
1K
0L
0J
0=
0:
0?
0E
03
12
0%
1$
#540000
0"
0!
00
01
09
07
08
1I
0;
#545000
1"
10
17
18
0<
1J
#550000
0"
1!
00
11
19
07
08
0I
1;
1=
#555000
1"
10
17
18
1<
0H
0@
0F
1M
1L
0J
0=
1:
1C
1E
02
15
0$
1&
#560000
0"
0!
00
01
09
07
08
1I
0;
#565000
1"
10
17
18
0<
1J
#570000
0"
1!
00
11
19
07
08
0I
1;
1=
1>
#575000
1"
10
17
18
1<
1H
1G
1D
1F
0M
0K
0L
0J
0=
0:
1A
0C
14
05
1#
0&
#580000
0"
0!
00
01
09
07
08
1I
0;
#585000
1"
10
17
18
0<
1J
#590000
0"
1!
00
11
19
07
08
0I
1;
1=
#595000
1"
10
17
18
1<
0H
1B
0D
1L
0J
0=
1:
1?
0A
04
13
0#
1%
#600000
0"
0!
00
01
09
07
08
1I
0;
#605000
1"
10
17
18
0<
1J
#610000
0"
1!
00
11
19
07
08
0I
1;
1=
0>
#615000
1"
10
17
18
1<
1H
0G
1@
0B
1K
0L
0J
0=
0:
0?
0E
03
12
0%
1$
#620000
0"
0!
00
01
09
07
08
1I
0;
#625000
1"
10
17
18
0<
1J
#630000
0"
1!
00
11
19
07
08
0I
1;
1=
#635000
1"
10
17
18
1<
0H
0@
0F
1M
1L
0J
0=
1:
1C
1E
02
15
0$
1&
#640000
0"
0!
00
01
09
07
08
1I
0;
#645000
1"
10
17
18
0<
1J
#650000
0"
1!
00
11
19
07
08
0I
1;
1=
1>
#655000
1"
10
17
18
1<
1H
1G
1D
1F
0M
0K
0L
0J
0=
0:
1A
0C
14
05
1#
0&
#660000
0"
0!
00
01
09
07
08
1I
0;
#665000
1"
10
17
18
0<
1J
#670000
0"
1!
00
11
19
07
08
0I
1;
1=
#675000
1"
10
17
18
1<
0H
1B
0D
1L
0J
0=
1:
1?
0A
04
13
0#
1%
#680000
0"
0!
00
01
09
07
08
1I
0;
#685000
1"
10
17
18
0<
1J
#690000
0"
1!
00
11
19
07
08
0I
1;
1=
0>
#695000
1"
10
17
18
1<
1H
0G
1@
0B
1K
0L
0J
0=
0:
0?
0E
03
12
0%
1$
#700000
0"
0!
00
01
09
07
08
1I
0;
#705000
1"
10
17
18
0<
1J
#710000
0"
1!
00
11
19
07
08
0I
1;
1=
#715000
1"
10
17
18
1<
0H
0@
0F
1M
1L
0J
0=
1:
1C
1E
02
15
0$
1&
#720000
0"
0!
00
01
09
07
08
1I
0;
#725000
1"
10
17
18
0<
1J
#730000
0"
1!
00
11
19
07
08
0I
1;
1=
1>
#735000
1"
10
17
18
1<
1H
1G
1D
1F
0M
0K
0L
0J
0=
0:
1A
0C
14
05
1#
0&
#740000
0"
0!
00
01
09
07
08
1I
0;
#745000
1"
10
17
18
0<
1J
#750000
0"
1!
00
11
19
07
08
0I
1;
1=
#755000
1"
10
17
18
1<
0H
1B
0D
1L
0J
0=
1:
1?
0A
04
13
0#
1%
#760000
0"
0!
00
01
09
07
08
1I
0;
#765000
1"
10
17
18
0<
1J
#770000
0"
1!
00
11
19
07
08
0I
1;
1=
0>
#775000
1"
10
17
18
1<
1H
0G
1@
0B
1K
0L
0J
0=
0:
0?
0E
03
12
0%
1$
#780000
0"
0!
00
01
09
07
08
1I
0;
#785000
1"
10
17
18
0<
1J
#790000
0"
1!
00
11
19
07
08
0I
1;
1=
#795000
1"
10
17
18
1<
0H
0@
0F
1M
1L
0J
0=
1:
1C
1E
02
15
0$
1&
#800000
0"
0!
00
01
09
07
08
1I
0;
#805000
1"
10
17
18
0<
1J
#810000
0"
1!
00
11
19
07
08
0I
1;
1=
1>
#815000
1"
10
17
18
1<
1H
1G
1D
1F
0M
0K
0L
0J
0=
0:
1A
0C
14
05
1#
0&
#820000
0"
0!
00
01
09
07
08
1I
0;
#825000
1"
10
17
18
0<
1J
#830000
0"
1!
00
11
19
07
08
0I
1;
1=
#835000
1"
10
17
18
1<
0H
1B
0D
1L
0J
0=
1:
1?
0A
04
13
0#
1%
#840000
0"
0!
00
01
09
07
08
1I
0;
#845000
1"
10
17
18
0<
1J
#850000
0"
1!
00
11
19
07
08
0I
1;
1=
0>
#855000
1"
10
17
18
1<
1H
0G
1@
0B
1K
0L
0J
0=
0:
0?
0E
03
12
0%
1$
#860000
0"
0!
00
01
09
07
08
1I
0;
#865000
1"
10
17
18
0<
1J
#870000
0"
1!
00
11
19
07
08
0I
1;
1=
#875000
1"
10
17
18
1<
0H
0@
0F
1M
1L
0J
0=
1:
1C
1E
02
15
0$
1&
#880000
0"
0!
00
01
09
07
08
1I
0;
#885000
1"
10
17
18
0<
1J
#890000
0"
1!
00
11
19
07
08
0I
1;
1=
1>
#895000
1"
10
17
18
1<
1H
1G
1D
1F
0M
0K
0L
0J
0=
0:
1A
0C
14
05
1#
0&
#900000
0"
0!
00
01
09
07
08
1I
0;
#905000
1"
10
17
18
0<
1J
#910000
0"
1!
00
11
19
07
08
0I
1;
1=
#915000
1"
10
17
18
1<
0H
1B
0D
1L
0J
0=
1:
1?
0A
04
13
0#
1%
#920000
0"
0!
00
01
09
07
08
1I
0;
#925000
1"
10
17
18
0<
1J
#930000
0"
1!
00
11
19
07
08
0I
1;
1=
0>
#935000
1"
10
17
18
1<
1H
0G
1@
0B
1K
0L
0J
0=
0:
0?
0E
03
12
0%
1$
#940000
0"
0!
00
01
09
07
08
1I
0;
#945000
1"
10
17
18
0<
1J
#950000
0"
1!
00
11
19
07
08
0I
1;
1=
#955000
1"
10
17
18
1<
0H
0@
0F
1M
1L
0J
0=
1:
1C
1E
02
15
0$
1&
#960000
0"
0!
00
01
09
07
08
1I
0;
#965000
1"
10
17
18
0<
1J
#970000
0"
1!
00
11
19
07
08
0I
1;
1=
1>
#975000
1"
10
17
18
1<
1H
1G
1D
1F
0M
0K
0L
0J
0=
0:
1A
0C
14
05
1#
0&
#980000
0"
0!
00
01
09
07
08
1I
0;
#985000
1"
10
17
18
0<
1J
#990000
0"
1!
00
11
19
07
08
0I
1;
1=
#995000
1"
10
17
18
1<
0H
1B
0D
1L
0J
0=
1:
1?
0A
04
13
0#
1%
