aula23/exercicio3/simulation/qsim/exercicio3.msim.vcd
$comment
	File created using the following command:
		vcd file exercicio3.msim.vcd -direction
$end
$date
	Mon Nov 11 23:24:18 2019
$end
$version
	ModelSim Version 10.5b
$end
$timescale
	1ps
$end

$scope module exercicio3_vhd_vec_tst $end
$var wire 1 ! clk $end
$var wire 1 " clr $end
$var wire 1 # cnt $end
$var wire 1 $ fc $end
$var wire 1 % saida [3] $end
$var wire 1 & saida [2] $end
$var wire 1 ' saida [1] $end
$var wire 1 ( saida [0] $end
$var wire 1 ) up_d $end

$scope module i1 $end
$var wire 1 * gnd $end
$var wire 1 + vcc $end
$var wire 1 , unknown $end
$var wire 1 - devoe $end
$var wire 1 . devclrn $end
$var wire 1 / devpor $end
$var wire 1 0 ww_devoe $end
$var wire 1 1 ww_devclrn $end
$var wire 1 2 ww_devpor $end
$var wire 1 3 ww_clk $end
$var wire 1 4 ww_cnt $end
$var wire 1 5 ww_clr $end
$var wire 1 6 ww_up_d $end
$var wire 1 7 ww_fc $end
$var wire 1 8 ww_saida [3] $end
$var wire 1 9 ww_saida [2] $end
$var wire 1 : ww_saida [1] $end
$var wire 1 ; ww_saida [0] $end
$var wire 1 < \clr~input_o\ $end
$var wire 1 = \~QUARTUS_CREATED_GND~I_combout\ $end
$var wire 1 > \clk~input_o\ $end
$var wire 1 ? \clk~inputCLKENA0_outclk\ $end
$var wire 1 @ \up_d~input_o\ $end
$var wire 1 A \valor[0]~0_combout\ $end
$var wire 1 B \cnt~input_o\ $end
$var wire 1 C \Add1~0_combout\ $end
$var wire 1 D \Add1~1_combout\ $end
$var wire 1 E \Add1~2_combout\ $end
$var wire 1 F \fc~0_combout\ $end
$var wire 1 G valor [3] $end
$var wire 1 H valor [2] $end
$var wire 1 I valor [1] $end
$var wire 1 J valor [0] $end
$var wire 1 K \ALT_INV_up_d~input_o\ $end
$var wire 1 L ALT_INV_valor [3] $end
$var wire 1 M ALT_INV_valor [2] $end
$var wire 1 N ALT_INV_valor [1] $end
$var wire 1 O ALT_INV_valor [0] $end
$upscope $end
$upscope $end
$enddefinitions $end
#0
$dumpvars
0!
0"
0#
0$
0)
0*
1+
x,
1-
1.
1/
10
11
12
03
04
05
06
07
0<
x=
0>
0?
0@
1A
0B
1C
1D
1E
0F
1K
08
09
0:
0;
0G
0H
0I
0J
1L
1M
1N
1O
0%
0&
0'
0(
$end
#5000
1)
16
1@
0K
0C
0D
0E
#7500
1#
14
1B
#10000
0)
06
0@
1K
1C
1D
1E
#15000
1)
0#
16
04
0B
1@
0K
0C
0D
0E
#20000
0)
1!
06
13
1>
0@
1?
1K
1C
1D
1E
#22500
1#
14
1B
#25000
1)
16
1@
0K
0C
0D
0E
#30000
0)
0#
06
04
0B
0@
1K
1C
1D
1E
#35000
1)
16
1@
0K
0C
0D
0E
#37500
1#
14
1B
#40000
0)
0!
1"
06
03
15
1<
0>
0@
0?
1K
1C
1D
1E
#45000
1)
0#
16
04
0B
1@
0K
0C
0D
0E
#50000
0)
06
0@
1K
1C
1D
1E
#52500
1#
14
1B
#55000
1)
16
1@
0K
0C
0D
0E
#60000
0)
0#
1!
06
04
13
1>
0B
0@
1?
1K
1C
1D
1E
#65000
1)
16
1@
0K
0C
0D
0E
#67500
1#
14
1B
#70000
0)
06
0@
1K
1C
1D
1E
#75000
1)
0#
16
04
0B
1@
0K
0C
0D
0E
#80000
0)
0!
0"
06
03
05
0<
0>
0@
0?
1K
1C
1D
1E
#82500
1#
14
1B
#85000
1)
16
1@
0K
0C
0D
0E
#90000
0)
0#
06
04
0B
0@
1K
1C
1D
1E
#95000
1)
16
1@
0K
0C
0D
0E
#97500
1#
14
1B
#100000
0)
1!
06
13
1>
0@
1?
1K
1C
1D
1E
1J
0O
0A
0C
0D
0E
1;
1(
#105000
1)
0#
16
04
0B
1@
0K
1C
#110000
0)
06
0@
1K
0C
#112500
1#
14
1B
#115000
1)
16
1@
0K
1C
#120000
0)
0#
0!
1"
06
04
03
15
1<
0>
0B
0@
0?
1K
0C
#125000
1)
16
1@
0K
1C
#127500
1#
14
1B
#130000
0)
06
0@
1K
0C
#135000
1)
0#
16
04
0B
1@
0K
1C
#140000
0)
1!
06
13
1>
0@
1?
1K
0C
#142500
1#
14
1B
#145000
1)
16
1@
0K
1C
#150000
0)
0#
06
04
0B
0@
1K
0C
#155000
1)
16
1@
0K
1C
#157500
1#
14
1B
#160000
0)
0!
0"
06
03
05
0<
0>
0@
0?
1K
0C
#165000
1)
0#
16
04
0B
1@
0K
1C
#170000
0)
06
0@
1K
0C
#172500
1#
14
1B
#175000
1)
16
1@
0K
1C
#180000
0)
0#
1!
06
04
13
1>
0B
0@
1?
1K
0C
#185000
1)
16
1@
0K
1C
#187500
1#
14
1B
#190000
0)
06
0@
1K
0C
#195000
1)
0#
16
04
0B
1@
0K
1C
#200000
0)
0!
1"
06
03
15
1<
0>
0@
0?
1K
0C
#202500
1#
14
1B
#205000
1)
16
1@
0K
1C
#210000
0)
0#
06
04
0B
0@
1K
0C
#215000
1)
16
1@
0K
1C
#217500
1#
14
1B
#220000
0)
1!
06
13
1>
0@
1?
1K
0C
0J
1I
0N
1O
1A
1:
0;
0(
1'
#225000
1)
0#
16
04
0B
1@
0K
1C
#230000
0)
06
0@
1K
0C
#232500
1#
14
1B
#235000
1)
16
1@
0K
1C
#240000
0)
0#
0!
0"
06
04
03
05
0<
0>
0B
0@
0?
1K
0C
#245000
1)
16
1@
0K
1C
#247500
1#
14
1B
#250000
0)
06
0@
1K
0C
#255000
1)
0#
16
04
0B
1@
0K
1C
#260000
0)
1!
06
13
1>
0@
1?
1K
0C
#262500
1#
14
1B
#265000
1)
16
1@
0K
1C
#270000
0)
0#
06
04
0B
0@
1K
0C
#275000
1)
16
1@
0K
1C
#277500
1#
14
1B
#280000
0)
0!
1"
06
03
15
1<
0>
0@
0?
1K
0C
#285000
1)
0#
16
04
0B
1@
0K
1C
#290000
0)
06
0@
1K
0C
#292500
1#
14
1B
#295000
1)
16
1@
0K
1C
#300000
0)
0#
1!
06
04
13
1>
0B
0@
1?
1K
0C
#305000
1)
16
1@
0K
1C
#307500
1#
14
1B
#310000
0)
06
0@
1K
0C
#315000
1)
0#
16
04
0B
1@
0K
1C
#320000
0)
0!
0"
06
03
05
0<
0>
0@
0?
1K
0C
#322500
1#
14
1B
#325000
1)
16
1@
0K
1C
#330000
0)
0#
06
04
0B
0@
1K
0C
#335000
1)
16
1@
0K
1C
#337500
1#
14
1B
#340000
0)
1!
06
13
1>
0@
1?
1K
0C
1J
0O
0A
1C
1;
1(
#345000
1)
0#
16
04
0B
1@
0K
0C
1D
#350000
0)
06
0@
1K
1C
0D
#352500
1#
14
1B
#355000
1)
16
1@
0K
0C
1D
#360000
0)
0#
0!
1"
06
04
03
15
1<
0>
0B
0@
0?
1K
1C
0D
#365000
1)
16
1@
0K
0C
1D
#367500
1#
14
1B
#370000
0)
06
0@
1K
1C
0D
#375000
1)
0#
16
04
0B
1@
0K
0C
1D
#380000
0)
1!
06
13
1>
0@
1?
1K
1C
0D
#382500
1#
14
1B
#385000
1)
16
1@
0K
0C
1D
#390000
0)
0#
06
04
0B
0@
1K
1C
0D
#395000
1)
16
1@
0K
0C
1D
#397500
1#
14
1B
#400000
0)
0!
0"
06
03
05
0<
0>
0@
0?
1K
1C
0D
#405000
1)
0#
16
04
0B
1@
0K
0C
1D
#410000
0)
06
0@
1K
1C
0D
#412500
1#
14
1B
#415000
1)
16
1@
0K
0C
1D
#420000
0)
0#
1!
06
04
13
1>
0B
0@
1?
1K
1C
0D
#425000
1)
16
1@
0K
0C
1D
#427500
1#
14
1B
#430000
0)
06
0@
1K
1C
0D
#435000
1)
0#
16
04
0B
1@
0K
0C
1D
#440000
0)
0!
1"
06
03
15
1<
0>
0@
0?
1K
1C
0D
#442500
1#
14
1B
#445000
1)
16
1@
0K
0C
1D
#450000
0)
0#
06
04
0B
0@
1K
1C
0D
#455000
1)
16
1@
0K
0C
1D
#457500
1#
14
1B
#460000
0)
1!
06
13
1>
0@
1?
1K
1C
0D
0J
0I
1H
0M
1N
1O
1A
19
0:
0;
0(
0'
1&
#465000
1)
0#
16
04
0B
1@
0K
0C
1D
#470000
0)
06
0@
1K
1C
0D
#472500
1#
14
1B
#475000
1)
16
1@
0K
0C
1D
#480000
0)
0#
0!
0"
06
04
03
05
0<
0>
0B
0@
0?
1K
1C
0D
#485000
1)
16
1@
0K
0C
1D
#487500
1#
14
1B
#490000
0)
06
0@
1K
1C
0D
#495000
1)
0#
16
04
0B
1@
0K
0C
1D
#500000
0)
1!
06
13
1>
0@
1?
1K
1C
0D
#502500
1#
14
1B
#505000
1)
16
1@
0K
0C
1D
#510000
0)
0#
06
04
0B
0@
1K
1C
0D
#515000
1)
16
1@
0K
0C
1D
#517500
1#
14
1B
#520000
0)
0!
1"
06
03
15
1<
0>
0@
0?
1K
1C
0D
#525000
1)
0#
16
04
0B
1@
0K
0C
1D
#530000
0)
06
0@
1K
1C
0D
#532500
1#
14
1B
#535000
1)
16
1@
0K
0C
1D
#540000
0)
0#
1!
06
04
13
1>
0B
0@
1?
1K
1C
0D
#545000
1)
16
1@
0K
0C
1D
#547500
1#
14
1B
#550000
0)
06
0@
1K
1C
0D
#555000
1)
0#
16
04
0B
1@
0K
0C
1D
#560000
0)
0!
0"
06
03
05
0<
0>
0@
0?
1K
1C
0D
#562500
1#
14
1B
#565000
1)
16
1@
0K
0C
1D
#570000
0)
0#
06
04
0B
0@
1K
1C
0D
#575000
1)
16
1@
0K
0C
1D
#577500
1#
14
1B
#580000
0)
1!
06
13
1>
0@
1?
1K
1C
0D
1J
0O
0A
0C
1D
1F
1;
1(
17
1$
#585000
1)
0#
16
04
0B
1@
0K
1C
0F
07
0$
#590000
0)
06
0@
1K
0C
1F
17
1$
#592500
1#
14
1B
#595000
1)
16
1@
0K
1C
0F
07
0$
#600000
0)
0#
0!
1"
06
04
03
15
1<
0>
0B
0@
0?
1K
0C
1F
17
1$
#605000
1)
16
1@
0K
1C
0F
07
0$
#607500
1#
14
1B
#610000
0)
06
0@
1K
0C
1F
17
1$
#615000
1)
0#
16
04
0B
1@
0K
1C
0F
07
0$
#620000
0)
1!
06
13
1>
0@
1?
1K
0C
1F
17
1$
#622500
1#
14
1B
#625000
1)
16
1@
0K
1C
0F
07
0$
#630000
0)
0#
06
04
0B
0@
1K
0C
1F
17
1$
#635000
1)
16
1@
0K
1C
0F
07
0$
#637500
1#
14
1B
#640000
0)
0!
0"
06
03
05
0<
0>
0@
0?
1K
0C
1F
17
1$
#645000
1)
0#
16
04
0B
1@
0K
1C
0F
07
0$
#650000
0)
06
0@
1K
0C
1F
17
1$
#652500
1#
14
1B
#655000
1)
16
1@
0K
1C
0F
07
0$
#660000
0)
0#
1!
06
04
13
1>
0B
0@
1?
1K
0C
1F
17
1$
#665000
1)
16
1@
0K
1C
0F
07
0$
#667500
1#
14
1B
#670000
0)
06
0@
1K
0C
1F
17
1$
#675000
1)
0#
16
04
0B
1@
0K
1C
0F
07
0$
#680000
0)
0!
1"
06
03
15
1<
0>
0@
0?
1K
0C
1F
17
1$
#682500
1#
14
1B
#685000
1)
16
1@
0K
1C
0F
07
0$
#690000
0)
0#
06
04
0B
0@
1K
0C
1F
17
1$
#695000
1)
16
1@
0K
1C
0F
07
0$
#697500
1#
14
1B
#700000
0)
1!
06
13
1>
0@
1?
1K
0C
1F
0J
1I
0N
1O
1A
1:
0;
17
0(
1'
1$
#705000
1)
0#
16
04
0B
1@
0K
1C
0F
07
0$
#710000
0)
06
0@
1K
0C
1F
17
1$
#712500
1#
14
1B
#715000
1)
16
1@
0K
1C
0F
07
0$
#720000
0)
0#
0!
0"
06
04
03
05
0<
0>
0B
0@
0?
1K
0C
1F
17
1$
#725000
1)
16
1@
0K
1C
0F
07
0$
#727500
1#
14
1B
#730000
0)
06
0@
1K
0C
1F
17
1$
#735000
1)
0#
16
04
0B
1@
0K
1C
0F
07
0$
#740000
0)
1!
06
13
1>
0@
1?
1K
0C
1F
17
1$
#742500
1#
14
1B
#745000
1)
16
1@
0K
1C
0F
07
0$
#750000
0)
0#
06
04
0B
0@
1K
0C
1F
17
1$
#755000
1)
16
1@
0K
1C
0F
07
0$
#757500
1#
14
1B
#760000
0)
0!
1"
06
03
15
1<
0>
0@
0?
1K
0C
1F
17
1$
#765000
1)
0#
16
04
0B
1@
0K
1C
0F
07
0$
#770000
0)
06
0@
1K
0C
1F
17
1$
#772500
1#
14
1B
#775000
1)
16
1@
0K
1C
0F
07
0$
#780000
0)
0#
1!
06
04
13
1>
0B
0@
1?
1K
0C
1F
17
1$
#785000
1)
16
1@
0K
1C
0F
07
0$
#787500
1#
14
1B
#790000
0)
06
0@
1K
0C
1F
17
1$
#795000
1)
0#
16
04
0B
1@
0K
1C
0F
07
0$
#800000
0)
0!
0"
06
03
05
0<
0>
0@
0?
1K
0C
1F
17
1$
#802500
1#
14
1B
#805000
1)
16
1@
0K
1C
0F
07
0$
#810000
0)
0#
06
04
0B
0@
1K
0C
1F
17
1$
#815000
1)
16
1@
0K
1C
0F
07
0$
#817500
1#
14
1B
#820000
0)
1!
06
13
1>
0@
1?
1K
0C
1F
1J
0O
0A
1C
1;
17
1(
1$
#825000
1)
0#
16
04
0B
1@
0K
0C
0D
1E
0F
07
0$
#830000
0)
06
0@
1K
1C
1D
0E
1F
17
1$
#832500
1#
14
1B
#835000
1)
16
1@
0K
0C
0D
1E
0F
07
0$
#840000
0)
0#
0!
1"
06
04
03
15
1<
0>
0B
0@
0?
1K
1C
1D
0E
1F
17
1$
#845000
1)
16
1@
0K
0C
0D
1E
0F
07
0$
#847500
1#
14
1B
#850000
0)
06
0@
1K
1C
1D
0E
1F
17
1$
#855000
1)
0#
16
04
0B
1@
0K
0C
0D
1E
0F
07
0$
#860000
0)
1!
06
13
1>
0@
1?
1K
1C
1D
0E
1F
17
1$
#862500
1#
14
1B
#865000
1)
16
1@
0K
0C
0D
1E
0F
07
0$
#870000
0)
0#
06
04
0B
0@
1K
1C
1D
0E
1F
17
1$
#875000
1)
16
1@
0K
0C
0D
1E
0F
07
0$
#877500
1#
14
1B
#880000
0)
0!
0"
06
03
05
0<
0>
0@
0?
1K
1C
1D
0E
1F
17
1$
#885000
1)
0#
16
04
0B
1@
0K
0C
0D
1E
0F
07
0$
#890000
0)
06
0@
1K
1C
1D
0E
1F
17
1$
#892500
1#
14
1B
#895000
1)
16
1@
0K
0C
0D
1E
0F
07
0$
#900000
0)
0#
1!
06
04
13
1>
0B
0@
1?
1K
1C
1D
0E
1F
17
1$
#905000
1)
16
1@
0K
0C
0D
1E
0F
07
0$
#907500
1#
14
1B
#910000
0)
06
0@
1K
1C
1D
0E
1F
17
1$
#915000
1)
0#
16
04
0B
1@
0K
0C
0D
1E
0F
07
0$
#920000
0)
0!
1"
06
03
15
1<
0>
0@
0?
1K
1C
1D
0E
1F
17
1$
#922500
1#
14
1B
#925000
1)
16
1@
0K
0C
0D
1E
0F
07
0$
#930000
0)
0#
06
04
0B
0@
1K
1C
1D
0E
1F
17
1$
#935000
1)
16
1@
0K
0C
0D
1E
0F
07
0$
#937500
1#
14
1B
#940000
0)
1!
06
13
1>
0@
1?
1K
1C
1D
0E
1F
0J
0I
0H
1G
0L
1M
1N
1O
1A
0F
18
09
0:
0;
17
0(
0'
0&
1%
1$
07
0$
#945000
1)
0#
16
04
0B
1@
0K
0C
0D
1E
#950000
0)
06
0@
1K
1C
1D
0E
#952500
1#
14
1B
#955000
1)
16
1@
0K
0C
0D
1E
#960000
0)
0#
0!
0"
06
04
03
05
0<
0>
0B
0@
0?
1K
1C
1D
0E
#965000
1)
16
1@
0K
0C
0D
1E
#967500
1#
14
1B
#970000
0)
06
0@
1K
1C
1D
0E
#975000
1)
0#
16
04
0B
1@
0K
0C
0D
1E
#980000
0)
1!
06
13
1>
0@
1?
1K
1C
1D
0E
#982500
1#
14
1B
#985000
1)
16
1@
0K
0C
0D
1E
#990000
0)
0#
06
04
0B
0@
1K
1C
1D
0E
#995000
1)
16
1@
0K
0C
0D
1E
#997500
1#
14
1B
